<?xml version="1.0" encoding="UTF-8" standalone="no"?>
<!-- Created with Inkscape (http://www.inkscape.org/) -->

<svg
   xmlns:dc="http://purl.org/dc/elements/1.1/"
   xmlns:cc="http://creativecommons.org/ns#"
   xmlns:rdf="http://www.w3.org/1999/02/22-rdf-syntax-ns#"
   xmlns:svg="http://www.w3.org/2000/svg"
   xmlns="http://www.w3.org/2000/svg"
   xmlns:sodipodi="http://sodipodi.sourceforge.net/DTD/sodipodi-0.dtd"
   xmlns:inkscape="http://www.inkscape.org/namespaces/inkscape"
   id="svg3355"
   version="1.1"
   inkscape:version="0.91 r13725"
   xml:space="preserve"
   width="210mm"
   height="297mm"
   viewBox="0 0 744.09448 1052.3622"
   sodipodi:docname="pag8voltage.svg"><metadata
     id="metadata3361"><rdf:RDF><cc:Work
         rdf:about=""><dc:format>image/svg+xml</dc:format><dc:type
           rdf:resource="http://purl.org/dc/dcmitype/StillImage" /><dc:title></dc:title></cc:Work></rdf:RDF></metadata><defs
     id="defs3359"><clipPath
       clipPathUnits="userSpaceOnUse"
       id="clipPath3369"><path
         d="m 62.999,743 468,0 0,-15.48 -468,0 0,15.48 z"
         id="path3371"
         inkscape:connector-curvature="0"
         style="clip-rule:evenodd" /></clipPath><clipPath
       clipPathUnits="userSpaceOnUse"
       id="clipPath3375"><path
         d="m 0,792.015 612,0 0,-792 -612,0 0,792 z"
         id="path3377"
         inkscape:connector-curvature="0" /></clipPath><clipPath
       clipPathUnits="userSpaceOnUse"
       id="clipPath3393"><path
         d="m 62.999,53.96 468,0 0,-16.8 -468,0 0,16.8 z"
         id="path3395"
         inkscape:connector-curvature="0"
         style="clip-rule:evenodd" /></clipPath><clipPath
       clipPathUnits="userSpaceOnUse"
       id="clipPath3399"><path
         d="m 0,792.015 612,0 0,-792 -612,0 0,792 z"
         id="path3401"
         inkscape:connector-curvature="0" /></clipPath><clipPath
       clipPathUnits="userSpaceOnUse"
       id="clipPath3525"><path
         d="m 62.999,609.92 467.28,0 0,-218.16 -467.28,0 0,218.16 z"
         id="path3527"
         inkscape:connector-curvature="0"
         style="clip-rule:evenodd" /></clipPath><clipPath
       clipPathUnits="userSpaceOnUse"
       id="clipPath3531"><path
         d="m 0,792.015 612,0 0,-792 -612,0 0,792 z"
         id="path3533"
         inkscape:connector-curvature="0" /></clipPath><clipPath
       clipPathUnits="userSpaceOnUse"
       id="clipPath4223"><path
         d="m 314.999,375.8 214.8,0 0,-232.8 -214.8,0 0,232.8 z"
         id="path4225"
         inkscape:connector-curvature="0"
         style="clip-rule:evenodd" /></clipPath><clipPath
       clipPathUnits="userSpaceOnUse"
       id="clipPath4229"><path
         d="m 0,792.015 612,0 0,-792 -612,0 0,792 z"
         id="path4231"
         inkscape:connector-curvature="0" /></clipPath><clipPath
       clipPathUnits="userSpaceOnUse"
       id="clipPath4223-3"><path
         d="m 314.999,375.8 214.8,0 0,-232.8 -214.8,0 0,232.8 z"
         id="path4225-6"
         inkscape:connector-curvature="0"
         style="clip-rule:evenodd" /></clipPath><clipPath
       clipPathUnits="userSpaceOnUse"
       id="clipPath4229-7"><path
         d="m 0,792.015 612,0 0,-792 -612,0 0,792 z"
         id="path4231-5"
         inkscape:connector-curvature="0" /></clipPath></defs><sodipodi:namedview
     pagecolor="#ffffff"
     bordercolor="#666666"
     borderopacity="1"
     objecttolerance="10"
     gridtolerance="10"
     guidetolerance="10"
     inkscape:pageopacity="0"
     inkscape:pageshadow="2"
     inkscape:window-width="1366"
     inkscape:window-height="744"
     id="namedview3357"
     showgrid="false"
     units="mm"
     inkscape:zoom="0.43354931"
     inkscape:cx="326.78077"
     inkscape:cy="432.12562"
     inkscape:window-x="0"
     inkscape:window-y="24"
     inkscape:window-maximized="1"
     inkscape:current-layer="g3363" /><g
     id="g3363"
     inkscape:groupmode="layer"
     inkscape:label="pag8"
     transform="matrix(1.25,0,0,-1.25,0,1052.3622)"><text
       transform="matrix(1,0,0,-1,409.55929,31.8803)"
       style="font-variant:normal;font-weight:normal;font-stretch:normal;font-size:7.92000008px;font-family:Symbol;-inkscape-font-specification:Symbol;writing-mode:lr-tb;fill:#000000;fill-opacity:1;fill-rule:nonzero;stroke:none"
       id="text3413"><tspan
         x="0"
         y="0"
         id="tspan3415"></tspan></text>
<text
       transform="scale(1,-1)"
       style="font-variant:normal;font-weight:normal;font-stretch:normal;font-size:9px;font-family:Arial;-inkscape-font-specification:Arial;writing-mode:lr-tb;fill:#000000;fill-opacity:1;fill-rule:nonzero;stroke:none"
       id="text3435"
       x="62.449814"
       y="-579.89008"><tspan
         x="62.449814"
         y="-579.89008"
         id="tspan3437">,</tspan></text>
<g
       id="g4219"
       transform="matrix(2.4603809,0,0,2.4603809,-735.21492,-202.05988)"><g
         id="g4221"
         clip-path="url(#clipPath4223-3)"><g
           id="g4227"
           clip-path="url(#clipPath4229-7)"><g
             id="g4233"
             transform="translate(437.279,224.6)"><path
               d="m 0,0 14.52,0.12 0,-4.8 -1.32,0.96 -1.68,0.84 -1.2,0.36 -0.96,0.24 -1.32,0.12 -1.32,0 L 5.16,-2.28 4.08,-2.52 2.88,-2.88 1.92,-3.36 1.32,-3.72 0,-4.56"
               style="fill:#ffffff;fill-opacity:1;fill-rule:evenodd;stroke:none"
               id="path4235"
               inkscape:connector-curvature="0" /></g><path
             d="m 437.279,224.48 14.64,0 0,0.12 -14.64,0 0,-0.12 z"
             style="fill:#ffffff;fill-opacity:1;fill-rule:nonzero;stroke:none"
             id="path4237"
             inkscape:connector-curvature="0" /><g
             id="g4239"
             transform="translate(451.919,224.72)"><path
               d="m 0,0 0,-5.04 -0.12,0.12 -1.32,0.96 0,0.12 0,-0.12 -1.68,0.84 0,0.12 0,-0.12 -1.2,0.36 0,0.12 0,-0.12 -0.96,0.24 0,0.12 0,-0.12 -1.32,0.12 0,0.12 0,-0.12 -1.32,0 0,0.12 0,-0.12 -1.56,-0.12 0,0.12 0,-0.12 -1.08,-0.24 0,0.12 0,-0.12 -1.2,-0.36 0,0.12 0,-0.12 -0.96,-0.48 0,0.12 0.12,-0.12 -0.6,-0.36 -0.12,0.12 0.12,-0.12 -1.32,-0.84 -0.12,-0.12 0,0.24 1.32,0.84 0.6,0.36 0.96,0.48 1.2,0.36 1.08,0.24 1.56,0.12 1.32,0 1.32,-0.12 0.96,-0.24 1.2,-0.36 2.16,-1.08 -0.36,0.24 L 0,-4.8 -0.12,-4.92 -0.12,0"
               style="fill:#ffffff;fill-opacity:1;fill-rule:nonzero;stroke:none"
               id="path4241"
               inkscape:connector-curvature="0" /></g><path
             d="m 437.279,220.04 0.12,0 0,4.56 -0.12,0 0,-4.56 z"
             style="fill:#ffffff;fill-opacity:1;fill-rule:nonzero;stroke:none"
             id="path4243"
             inkscape:connector-curvature="0" /><g
             id="g4245"
             transform="translate(384.119,161.48)"><path
               d="m 0,0 6.36,-6.36 1.56,0 6.36,6.36"
               style="fill:#ffffff;fill-opacity:1;fill-rule:evenodd;stroke:none"
               id="path4247"
               inkscape:connector-curvature="0" /></g><g
             id="g4249"
             transform="translate(384.239,161.48)"><path
               d="m 0,0 6.36,-6.36 -0.12,-0.12 0,0.24 1.56,0 0.12,-0.24 -0.12,0.12 6.36,6.36 0,0.12 0.36,0 -6.6,-6.6 -1.68,0 -6.36,6.36"
               style="fill:#ffffff;fill-opacity:1;fill-rule:nonzero;stroke:none"
               id="path4251"
               inkscape:connector-curvature="0" /></g><g
             id="g4253"
             transform="translate(398.399,161.36)"><path
               d="M 0,0 -14.28,0 -14.52,0.24 0,0.24"
               style="fill:#ffffff;fill-opacity:1;fill-rule:nonzero;stroke:none"
               id="path4255"
               inkscape:connector-curvature="0" /></g><text
             transform="matrix(0,1,1,0,442.679,229.8803)"
             style="font-variant:normal;font-weight:normal;font-stretch:normal;font-size:6.96000004px;font-family:Arial;-inkscape-font-specification:Arial;writing-mode:lr-tb;fill:#000000;fill-opacity:1;fill-rule:nonzero;stroke:none"
             id="text4257"><tspan
               x="0 -16.91976"
               y="0"
               sodipodi:role="line"
               id="tspan4259">12</tspan></text>
<path
             d="m 437.039,224.72 14.88,0 0,0.48 -14.88,0 0,-0.48 z"
             style="fill:#000000;fill-opacity:1;fill-rule:nonzero;stroke:none"
             id="path4261"
             inkscape:connector-curvature="0" /><path
             d="m 444.239,217.04 0.48001,0 0,4.8 -0.48001,0 0,-4.8 z"
             style="fill:#000000;fill-opacity:1;fill-rule:nonzero;stroke:none"
             id="path4263"
             inkscape:connector-curvature="0" /><g
             id="g4265"
             transform="translate(444.719,222.08)"><path
               d="M 0,0 -0.24,0.24 -0.48,0 -0.24,-0.24 0,0"
               style="fill:#000000;fill-opacity:1;fill-rule:nonzero;stroke:none"
               id="path4267"
               inkscape:connector-curvature="0" /></g><g
             id="g4269"
             transform="translate(444.479,222.32)"><path
               d="m 0,0 1.92,-0.12 0.12,0 1.8,-0.48 -0.24,-0.48 0.12,0 L 1.92,-0.6 0,-0.48"
               style="fill:#000000;fill-opacity:1;fill-rule:nonzero;stroke:none"
               id="path4271"
               inkscape:connector-curvature="0" /></g><g
             id="g4273"
             transform="translate(448.319,221.72)"><path
               d="m 0,0 1.68,-0.72 0,-0.12 -0.24,-0.36 -1.68,0.72"
               style="fill:#000000;fill-opacity:1;fill-rule:nonzero;stroke:none"
               id="path4275"
               inkscape:connector-curvature="0" /></g><g
             id="g4277"
             transform="translate(451.679,219.8)"><path
               d="M 0,0 -0.24,0.24 -0.48,0 -0.24,-0.24 0,0"
               style="fill:#000000;fill-opacity:1;fill-rule:nonzero;stroke:none"
               id="path4279"
               inkscape:connector-curvature="0" /></g><g
             id="g4281"
             transform="translate(449.999,220.88)"><path
               d="m 0,0 -0.24,-0.36 1.56,-0.96 0.24,0.36"
               style="fill:#000000;fill-opacity:1;fill-rule:nonzero;stroke:none"
               id="path4283"
               inkscape:connector-curvature="0" /></g><g
             id="g4285"
             transform="translate(437.879,219.8)"><path
               d="M 0,0 -0.24,0.24 -0.48,0 -0.24,-0.24 0,0"
               style="fill:#000000;fill-opacity:1;fill-rule:nonzero;stroke:none"
               id="path4287"
               inkscape:connector-curvature="0" /></g><g
             id="g4289"
             transform="translate(437.519,219.92)"><path
               d="m 0,0 1.56,0.96 0,0.12 1.68,0.72 0.12,0 L 3.48,1.32 1.8,0.6 0.24,-0.36"
               style="fill:#000000;fill-opacity:1;fill-rule:nonzero;stroke:none"
               id="path4291"
               inkscape:connector-curvature="0" /></g><g
             id="g4293"
             transform="translate(440.879,221.72)"><path
               d="M 0,0 1.8,0.48 1.8,0 1.92,0 0.12,-0.48"
               style="fill:#000000;fill-opacity:1;fill-rule:nonzero;stroke:none"
               id="path4295"
               inkscape:connector-curvature="0" /></g><g
             id="g4297"
             transform="translate(444.719,222.08)"><path
               d="M 0,0 -0.24,0.24 -0.48,0 -0.24,-0.24 0,0"
               style="fill:#000000;fill-opacity:1;fill-rule:nonzero;stroke:none"
               id="path4299"
               inkscape:connector-curvature="0" /></g><g
             id="g4301"
             transform="translate(442.679,222.2)"><path
               d="m 0,0 0,-0.48 1.8,0.12 0,0.48"
               style="fill:#000000;fill-opacity:1;fill-rule:nonzero;stroke:none"
               id="path4303"
               inkscape:connector-curvature="0" /></g><path
             d="m 383.999,161.24 14.88,0 0,0.48 -14.88,0 0,-0.48 z"
             style="fill:#000000;fill-opacity:1;fill-rule:nonzero;stroke:none"
             id="path4305"
             inkscape:connector-curvature="0" /><path
             d="m 386.159,159.08 10.56,0 0,0.48 -10.56,0 0,-0.48 z"
             style="fill:#000000;fill-opacity:1;fill-rule:nonzero;stroke:none"
             id="path4307"
             inkscape:connector-curvature="0" /><path
             d="m 388.319,156.92 6.24,0 0,0.48 -6.24,0 0,-0.48 z"
             style="fill:#000000;fill-opacity:1;fill-rule:nonzero;stroke:none"
             id="path4309"
             inkscape:connector-curvature="0" /><path
             d="m 390.479,154.76 1.92,0 0,0.48001 -1.92,0 0,-0.48001 z"
             style="fill:#000000;fill-opacity:1;fill-rule:nonzero;stroke:none"
             id="path4311"
             inkscape:connector-curvature="0" /><path
             d="m 444.239,224.72 0.48001,0 0,31.68 -0.48001,0 0,-31.68 z"
             style="fill:#000000;fill-opacity:1;fill-rule:nonzero;stroke:none"
             id="path4313"
             inkscape:connector-curvature="0" /><path
             d="m 444.239,187.76 0.48001,0 0,30.48 -0.48001,0 0,-30.48 z"
             style="fill:#000000;fill-opacity:1;fill-rule:nonzero;stroke:none"
             id="path4315"
             inkscape:connector-curvature="0" /><g
             id="g4317"
             transform="translate(391.559,188.6)"><path
               d="m 0,0 -0.36,0 -0.36,-0.24 -0.24,-0.36 0,-0.72 0.24,-0.36 0.36,-0.24 0.36,-0.12 0.36,0.12 0.36,0.24 0.24,0.36 0,0.72 L 0.72,-0.24 0.36,0 0,0"
               style="fill:#000000;fill-opacity:1;fill-rule:evenodd;stroke:none"
               id="path4319"
               inkscape:connector-curvature="0" /></g><g
             id="g4321"
             transform="translate(391.559,188.12)"><path
               d="m 0,0 -0.36,0 0.24,0.12 -0.36,-0.24 0.24,0.12 -0.24,-0.36 0,0.24 0,-0.72 0,0.24 0.24,-0.36 -0.24,0.24 0.36,-0.24 0.36,-0.12 -0.36,0 0.36,0.12 -0.12,0 0.36,0.24 -0.12,-0.24 0.24,0.36 -0.12,-0.24 0,0.72 L 0.6,-0.36 0.36,0 0.48,-0.12 0.12,0.12 0.36,0 0,0 0,0.96 0.6,0.96 0.96,0.72 1.2,0.48 1.44,0.12 1.44,-1.08 1.2,-1.44 0.96,-1.56 0.6,-1.8 l 0,-0.12 -0.36,-0.12 -0.36,0 -0.36,0.12 -0.12,0.12 -0.36,0.24 -0.12,0.12 -0.24,0.36 -0.12,0.24 0,0.72 0.12,0.24 0.24,0.36 0.12,0.24 0.36,0.24 0.6,0"
               style="fill:#000000;fill-opacity:1;fill-rule:nonzero;stroke:none"
               id="path4323"
               inkscape:connector-curvature="0" /></g><g
             id="g4325"
             transform="translate(391.559,188.12)"><path
               d="M 0,0 0,0.96"
               style="fill:#000000;fill-opacity:1;fill-rule:nonzero;stroke:none"
               id="path4327"
               inkscape:connector-curvature="0" /></g><path
             d="m 391.199,212.24 0.48001,0 0,0.24001 -0.48001,0 0,-0.24001 z"
             style="fill:#ffffff;fill-opacity:1;fill-rule:nonzero;stroke:none"
             id="path4329"
             inkscape:connector-curvature="0" /><g
             id="g4331"
             transform="translate(391.199,212.48)"><path
               d="M 0,0 0,1.92 0.36,2.16 0.24,1.68 -3.96,3 l -0.72,0.24 0.72,0.24 8.52,3 0.12,0 L 4.56,6 l -9,2.76 -0.72,0.24 9.72,3.24 0.12,0 -0.12,-0.48 -8.88,3 -0.72,0.24 0.72,0.24 8.88,2.88 0.12,0 0.84,-0.24 -0.84,-0.24 -8.88,-2.88 -0.12,0.48 0.12,0 8.88,-3 L 5.4,12 -4.32,8.76 l -0.12,0.48 0.12,0 9,-2.76 L 5.52,6.24 4.68,6 -3.84,3 l -0.12,0.48 0.12,0 4.2,-1.32 0.12,0 0,-2.16"
               style="fill:#ffffff;fill-opacity:1;fill-rule:nonzero;stroke:none"
               id="path4333"
               inkscape:connector-curvature="0" /></g><g
             id="g4335"
             transform="translate(395.759,230.12)"><path
               d="m 0,0 -4.32,1.2 -0.24,0.12 0,0.12 0.36,0.24 4.32,-1.2"
               style="fill:#ffffff;fill-opacity:1;fill-rule:nonzero;stroke:none"
               id="path4337"
               inkscape:connector-curvature="0" /></g><path
             d="m 391.199,231.56 0.48001,0 0,2.88 -0.48001,0 0,-2.88 z"
             style="fill:#ffffff;fill-opacity:1;fill-rule:nonzero;stroke:none"
             id="path4339"
             inkscape:connector-curvature="0" /><path
             d="m 391.319,211.04 0.48001,0 0,24.12 -0.48001,0 0,-24.12 z"
             style="fill:#ffffff;fill-opacity:1;fill-rule:nonzero;stroke:none"
             id="path4341"
             inkscape:connector-curvature="0" /><g
             id="g4343"
             transform="translate(391.439,214.4)"><path
               d="m 0,0 -4.32,1.32 8.64,3 -8.64,2.76 8.64,3 -8.64,3 8.64,2.76 -4.2,1.44"
               style="fill:#ffffff;fill-opacity:1;fill-rule:evenodd;stroke:none"
               id="path4345"
               inkscape:connector-curvature="0" /></g><g
             id="g4347"
             transform="translate(391.439,214.16)"><path
               d="m 0,0 0.24,0 0.12,0.48 -0.24,0"
               style="fill:#000000;fill-opacity:1;fill-rule:nonzero;stroke:none"
               id="path4349"
               inkscape:connector-curvature="0" /></g><g
             id="g4351"
             transform="translate(391.439,214.16)"><path
               d="m 0,0 -4.32,1.32 -0.72,0.24 0.72,0.24 8.64,3 0.12,0 -0.12,-0.48 -8.64,2.76 -0.72,0.24 0.72,0.24 8.64,3 0.12,0 -0.12,-0.48 -8.64,3 -0.72,0.24 0.72,0.24 0.12,0 8.64,-3 0.72,-0.24 -0.72,-0.24 -8.64,-3 -0.12,0.48 0.12,0 L 4.44,4.8 5.16,4.56 4.44,4.32 -4.2,1.32 -4.32,1.8 -4.2,1.8 0.12,0.48"
               style="fill:#000000;fill-opacity:1;fill-rule:nonzero;stroke:none"
               id="path4353"
               inkscape:connector-curvature="0" /></g><g
             id="g4355"
             transform="translate(387.119,227.72)"><path
               d="m 0,0 8.64,2.76 0.12,0 L 9.48,2.52 8.76,2.28 0.12,-0.48"
               style="fill:#000000;fill-opacity:1;fill-rule:nonzero;stroke:none"
               id="path4357"
               inkscape:connector-curvature="0" /></g><g
             id="g4359"
             transform="translate(391.559,231.44)"><path
               d="m 0,0 -0.24,0 0.12,0.48 0.24,0"
               style="fill:#000000;fill-opacity:1;fill-rule:nonzero;stroke:none"
               id="path4361"
               inkscape:connector-curvature="0" /></g><g
             id="g4363"
             transform="translate(395.759,230)"><path
               d="M 0,0 0.12,0.48 -4.08,1.92 -4.2,1.44"
               style="fill:#000000;fill-opacity:1;fill-rule:nonzero;stroke:none"
               id="path4365"
               inkscape:connector-curvature="0" /></g><g
             id="g4367"
             transform="translate(391.679,211.4)"><path
               d="M 0,0 -0.24,0.24 -0.48,0 -0.24,-0.24 0,0"
               style="fill:#000000;fill-opacity:1;fill-rule:nonzero;stroke:none"
               id="path4369"
               inkscape:connector-curvature="0" /></g><g
             id="g4371"
             transform="translate(391.679,214.4)"><path
               d="M 0,0 -0.24,0.24 -0.48,0 -0.24,-0.24 0,0"
               style="fill:#000000;fill-opacity:1;fill-rule:nonzero;stroke:none"
               id="path4373"
               inkscape:connector-curvature="0" /></g><path
             d="m 391.199,211.4 0.48001,0 0,3 -0.48001,0 0,-3 z"
             style="fill:#000000;fill-opacity:1;fill-rule:nonzero;stroke:none"
             id="path4375"
             inkscape:connector-curvature="0" /><g
             id="g4377"
             transform="translate(391.679,231.8)"><path
               d="M 0,0 -0.24,0.24 -0.48,0 -0.24,-0.24 0,0"
               style="fill:#000000;fill-opacity:1;fill-rule:nonzero;stroke:none"
               id="path4379"
               inkscape:connector-curvature="0" /></g><g
             id="g4381"
             transform="translate(391.679,234.8)"><path
               d="M 0,0 -0.24,0.24 -0.48,0 -0.24,-0.24 0,0"
               style="fill:#000000;fill-opacity:1;fill-rule:nonzero;stroke:none"
               id="path4383"
               inkscape:connector-curvature="0" /></g><path
             d="m 391.199,231.8 0.48001,0 0,3 -0.48001,0 0,-3 z"
             style="fill:#000000;fill-opacity:1;fill-rule:nonzero;stroke:none"
             id="path4385"
             inkscape:connector-curvature="0" /><path
             d="m 391.319,286.88 0.48001,0 0,0.24002 -0.48001,0 0,-0.24002 z"
             style="fill:#ffffff;fill-opacity:1;fill-rule:nonzero;stroke:none"
             id="path4387"
             inkscape:connector-curvature="0" /><g
             id="g4389"
             transform="translate(391.319,287.12)"><path
               d="M 0,0 0,1.92 0.36,2.16 0.24,1.68 -3.96,3 l -0.72,0.24 0.72,0.24 8.52,3 0.12,0 L 4.56,6 l -9,2.76 -0.72,0.24 9.72,3.24 0.12,0 -0.12,-0.48 -8.88,3 -0.72,0.24 0.72,0.24 8.88,2.76 0.12,0 0.84,-0.24 -0.84,-0.24 -8.88,-2.76 -0.12,0.48 0.12,0 8.88,-3 L 5.4,12 -4.32,8.76 l -0.12,0.48 0.12,0 9,-2.76 L 5.52,6.24 4.68,6 -3.84,3 l -0.12,0.48 0.12,0 4.2,-1.32 0.12,0 0,-2.16"
               style="fill:#ffffff;fill-opacity:1;fill-rule:nonzero;stroke:none"
               id="path4391"
               inkscape:connector-curvature="0" /></g><g
             id="g4393"
             transform="translate(395.879,304.64)"><path
               d="m 0,0 -4.32,1.32 -0.24,0.12 0,0.12 0.36,0.24 4.32,-1.32"
               style="fill:#ffffff;fill-opacity:1;fill-rule:nonzero;stroke:none"
               id="path4395"
               inkscape:connector-curvature="0" /></g><path
             d="m 391.319,306.2 0.48001,0 0,2.88 -0.48001,0 0,-2.88 z"
             style="fill:#ffffff;fill-opacity:1;fill-rule:nonzero;stroke:none"
             id="path4397"
             inkscape:connector-curvature="0" /><path
             d="m 391.439,285.68 0.48001,0 0,24.12 -0.48001,0 0,-24.12 z"
             style="fill:#ffffff;fill-opacity:1;fill-rule:nonzero;stroke:none"
             id="path4399"
             inkscape:connector-curvature="0" /><g
             id="g4401"
             transform="translate(391.559,289.04)"><path
               d="m 0,0 -4.32,1.32 8.64,3 -8.64,2.76 8.64,3 -8.64,3 8.64,2.76 -4.2,1.44"
               style="fill:#ffffff;fill-opacity:1;fill-rule:evenodd;stroke:none"
               id="path4403"
               inkscape:connector-curvature="0" /></g><g
             id="g4405"
             transform="translate(391.559,288.8)"><path
               d="m 0,0 0.24,0 0.12,0.48 -0.24,0"
               style="fill:#000000;fill-opacity:1;fill-rule:nonzero;stroke:none"
               id="path4407"
               inkscape:connector-curvature="0" /></g><g
             id="g4409"
             transform="translate(391.559,288.8)"><path
               d="m 0,0 -4.32,1.32 -0.72,0.24 0.72,0.24 8.64,3 0.12,0 -0.12,-0.48 -8.64,2.76 -0.72,0.24 0.72,0.24 8.64,3 0.12,0 -0.12,-0.48 -8.64,3 -0.72,0.24 0.72,0.24 0.12,0 8.64,-3 0.72,-0.24 -0.72,-0.24 -8.64,-3 -0.12,0.48 0.12,0 L 4.44,4.8 5.16,4.56 4.44,4.32 -4.2,1.32 -4.32,1.8 -4.2,1.8 0.12,0.48"
               style="fill:#000000;fill-opacity:1;fill-rule:nonzero;stroke:none"
               id="path4411"
               inkscape:connector-curvature="0" /></g><g
             id="g4413"
             transform="translate(387.239,302.36)"><path
               d="m 0,0 8.64,2.76 0.12,0 L 9.48,2.52 8.76,2.28 0.12,-0.48"
               style="fill:#000000;fill-opacity:1;fill-rule:nonzero;stroke:none"
               id="path4415"
               inkscape:connector-curvature="0" /></g><g
             id="g4417"
             transform="translate(391.679,306.08)"><path
               d="m 0,0 -0.24,0 0.12,0.48 0.24,0"
               style="fill:#000000;fill-opacity:1;fill-rule:nonzero;stroke:none"
               id="path4419"
               inkscape:connector-curvature="0" /></g><g
             id="g4421"
             transform="translate(395.879,304.64)"><path
               d="M 0,0 0.12,0.48 -4.08,1.92 -4.2,1.44"
               style="fill:#000000;fill-opacity:1;fill-rule:nonzero;stroke:none"
               id="path4423"
               inkscape:connector-curvature="0" /></g><g
             id="g4425"
             transform="translate(391.799,286.04)"><path
               d="M 0,0 -0.24,0.24 -0.48,0 -0.24,-0.24 0,0"
               style="fill:#000000;fill-opacity:1;fill-rule:nonzero;stroke:none"
               id="path4427"
               inkscape:connector-curvature="0" /></g><g
             id="g4429"
             transform="translate(391.799,289.04)"><path
               d="M 0,0 -0.24,0.24 -0.48,0 -0.24,-0.24 0,0"
               style="fill:#000000;fill-opacity:1;fill-rule:nonzero;stroke:none"
               id="path4431"
               inkscape:connector-curvature="0" /></g><path
             d="m 391.319,286.04 0.48001,0 0,3 -0.48001,0 0,-3 z"
             style="fill:#000000;fill-opacity:1;fill-rule:nonzero;stroke:none"
             id="path4433"
             inkscape:connector-curvature="0" /><g
             id="g4435"
             transform="translate(391.799,306.44)"><path
               d="M 0,0 -0.24,0.24 -0.48,0 -0.24,-0.24 0,0"
               style="fill:#000000;fill-opacity:1;fill-rule:nonzero;stroke:none"
               id="path4437"
               inkscape:connector-curvature="0" /></g><g
             id="g4439"
             transform="translate(391.799,309.44)"><path
               d="M 0,0 -0.24,0.24 -0.48,0 -0.24,-0.24 0,0"
               style="fill:#000000;fill-opacity:1;fill-rule:nonzero;stroke:none"
               id="path4441"
               inkscape:connector-curvature="0" /></g><path
             d="m 391.319,306.44 0.48001,0 0,3 -0.48001,0 0,-3 z"
             style="fill:#000000;fill-opacity:1;fill-rule:nonzero;stroke:none"
             id="path4443"
             inkscape:connector-curvature="0" /><path
             d="m 391.319,161.84 0.48001,0 0,52.32 -0.48001,0 0,-52.32 z"
             style="fill:#000000;fill-opacity:1;fill-rule:nonzero;stroke:none"
             id="path4445"
             inkscape:connector-curvature="0" /><path
             d="m 391.199,233.72 0.48001,0 0,52.32 -0.48001,0 0,-52.32 z"
             style="fill:#000000;fill-opacity:1;fill-rule:nonzero;stroke:none"
             id="path4447"
             inkscape:connector-curvature="0" /><path
             d="m 391.319,309.32 0.48001,0 0,52.32 -0.48001,0 0,-52.32 z"
             style="fill:#000000;fill-opacity:1;fill-rule:nonzero;stroke:none"
             id="path4449"
             inkscape:connector-curvature="0" /><path
             d="m 392.159,255.68 72.24,0 0,0.48 -72.24,0 0,-0.48 z"
             style="fill:#000000;fill-opacity:1;fill-rule:nonzero;stroke:none"
             id="path4451"
             inkscape:connector-curvature="0" /><path
             d="m 391.679,187.76 52.92,0 0,0.48 -52.92,0 0,-0.48 z"
             style="fill:#000000;fill-opacity:1;fill-rule:nonzero;stroke:none"
             id="path4453"
             inkscape:connector-curvature="0" /><path
             d="m 381.479,361.4 20.16,0 0,0.47998 -20.16,0 0,-0.47998 z"
             style="fill:#000000;fill-opacity:1;fill-rule:nonzero;stroke:none"
             id="path4455"
             inkscape:connector-curvature="0" /><g
             id="g4457"
             transform="translate(391.439,256.88)"><path
               d="m 0,0 -0.72,-0.24 -0.24,-0.36 0,-0.84 0.24,-0.24 0.36,-0.24 0.36,-0.12 0.36,0.12 0.36,0.24 0.24,0.24 0,0.84 L 0.72,-0.24 0,0"
               style="fill:#000000;fill-opacity:1;fill-rule:evenodd;stroke:none"
               id="path4459"
               inkscape:connector-curvature="0" /></g><g
             id="g4461"
             transform="translate(391.679,256.4)"><path
               d="m 0,0 -0.72,-0.24 0.24,0.24 -0.24,-0.36 0,0.24 0,-0.84 -0.12,0.36 0.24,-0.24 -0.12,0.12 0.36,-0.24 0.36,-0.12 -0.36,0 0.36,0.12 -0.12,0 0.36,0.24 -0.12,-0.12 0.24,0.24 -0.12,-0.36 0,0.84 L 0.36,-0.36 0.12,0 0.36,-0.24 -0.36,0 0,0.96 0.72,0.72 0.96,0.48 1.2,0.12 l 0,-1.08 -0.12,-0.36 -0.24,-0.24 -0.12,0 -0.36,-0.24 0,-0.12 -0.36,-0.12 -0.36,0 -0.36,0.12 -0.12,0.12 -0.36,0.24 -0.12,0 -0.24,0.24 -0.12,0.36 0,0.84 0.12,0.24 0.24,0.36 0.24,0.24 0.72,0.24"
               style="fill:#000000;fill-opacity:1;fill-rule:nonzero;stroke:none"
               id="path4463"
               inkscape:connector-curvature="0" /></g><g
             id="g4465"
             transform="translate(391.319,256.4)"><path
               d="M 0,0 0.36,0 0,0.96 l 0.36,0"
               style="fill:#000000;fill-opacity:1;fill-rule:nonzero;stroke:none"
               id="path4467"
               inkscape:connector-curvature="0" /></g><g
             id="g4469"
             transform="translate(444.359,257)"><path
               d="M 0,0 -0.48,-0.12 -0.96,-0.6 -1.08,-1.08 -0.96,-1.44 -0.72,-1.8 -0.48,-1.92 0,-2.04 0.72,-1.8 0.96,-1.08 0.84,-0.6 0.72,-0.36 0.36,-0.12 0,0"
               style="fill:#000000;fill-opacity:1;fill-rule:evenodd;stroke:none"
               id="path4471"
               inkscape:connector-curvature="0" /></g><g
             id="g4473"
             transform="translate(444.479,256.52)"><path
               d="m 0,0 -0.48,-0.12 0.24,0.12 -0.48,-0.48 0.12,0.24 -0.12,-0.48 0,0.36 0.12,-0.36 0.24,-0.36 -0.24,0.24 0.24,-0.12 -0.12,0 0.48,-0.12 -0.24,0 0.72,0.24 -0.36,-0.24 0.24,0.72 0,-0.36 L 0.24,-0.24 0.36,-0.36 0.24,-0.12 0.36,-0.24 0,0 0.12,-0.12 -0.24,0 0.12,0.96 0.48,0.84 0.84,0.6 1.08,0.36 1.2,0.12 1.2,0 1.32,-0.48 1.32,-0.72 1.2,-1.08 1.08,-1.44 0.84,-1.8 0.12,-2.04 l -0.36,0 -0.48,0.12 -0.12,0.12 -0.24,0.12 -0.12,0.12 -0.24,0.36 -0.12,0.12 -0.12,0.36 0,0.24 0.12,0.48 0.12,0.24 0.48,0.48 0.24,0.12 0.48,0.12"
               style="fill:#000000;fill-opacity:1;fill-rule:nonzero;stroke:none"
               id="path4475"
               inkscape:connector-curvature="0" /></g><g
             id="g4477"
             transform="translate(444.239,256.52)"><path
               d="M 0,0 0.24,0 0,0.96 l 0.36,0"
               style="fill:#000000;fill-opacity:1;fill-rule:nonzero;stroke:none"
               id="path4479"
               inkscape:connector-curvature="0" /></g><path
             d="m 457.799,256.28 1.2,0 0,0.48001 -1.2,0 0,-0.48001 z"
             style="fill:#000000;fill-opacity:1;fill-rule:nonzero;stroke:none"
             id="path4481"
             inkscape:connector-curvature="0" /><g
             id="g4483"
             transform="translate(458.519,256.28)"><path
               d="M 0,0 -0.72,2.04 -0.96,3 -0.12,2.76 7.08,0.72 8.76,0.24 7.08,-0.24 l -7.2,-2.04 -0.84,-0.24 0.24,0.84 0.36,0.36 7.2,2.04 0.24,-0.96 -0.24,0 -7.2,2.04 0.24,0.96 L 0.24,2.4 0.96,0.36"
               style="fill:#000000;fill-opacity:1;fill-rule:nonzero;stroke:none"
               id="path4485"
               inkscape:connector-curvature="0" /></g><g
             id="g4487"
             transform="translate(457.799,254.6)"><path
               d="m 0,0 0.72,2.04 0.96,0 L 1.8,1.8 1.68,1.68 0.96,-0.36"
               style="fill:#000000;fill-opacity:1;fill-rule:nonzero;stroke:none"
               id="path4489"
               inkscape:connector-curvature="0" /></g><g
             id="g4491"
             transform="translate(458.999,256.52)"><path
               d="M 0,0 -0.72,2.04 6.48,0 -0.72,-2.04"
               style="fill:#000000;fill-opacity:1;fill-rule:evenodd;stroke:none"
               id="path4493"
               inkscape:connector-curvature="0" /></g><path
             d="m 455.639,256.28 2.4,0 0,0.48001 -2.4,0 0,-0.48001 z"
             style="fill:#000000;fill-opacity:1;fill-rule:nonzero;stroke:none"
             id="path4495"
             inkscape:connector-curvature="0" /><text
             transform="matrix(0,1,1,0,381.119,147.5603)"
             style="font-variant:normal;font-weight:normal;font-stretch:normal;font-size:7.92000008px;font-family:Arial;-inkscape-font-specification:Arial;writing-mode:lr-tb;fill:#000000;fill-opacity:1;fill-rule:nonzero;stroke:none"
             id="text4497"><tspan
               x="0 6.221952 12.000384"
               y="0"
               sodipodi:role="line"
               id="tspan4499">GND</tspan><tspan
               x="68.279907 74.036163 78.477699"
               y="2.2801681"
               sodipodi:role="line"
               id="tspan4501">R11</tspan><tspan
               x="70.199715"
               y="23.160456"
               id="tspan4503">3</tspan></text>
<text
             transform="matrix(0,1,1,0,404.2791,222.2003)"
             style="font-variant:normal;font-weight:normal;font-stretch:normal;font-size:6.36000013px;font-family:Arial;-inkscape-font-specification:Arial;writing-mode:lr-tb;fill:#000000;fill-opacity:1;fill-rule:nonzero;stroke:none"
             id="text4505"><tspan
               x="0"
               y="0"
               id="tspan4507">K</tspan></text>
<text
             transform="matrix(0,1,1,0,390.119,208.6403)"
             style="font-variant:normal;font-weight:normal;font-stretch:normal;font-size:6.96000004px;font-family:Arial;-inkscape-font-specification:Arial;writing-mode:lr-tb;fill:#000000;fill-opacity:1;fill-rule:nonzero;stroke:none"
             id="text4509"><tspan
               x="0"
               y="0"
               id="tspan4511">1</tspan><tspan
               x="23.879761"
               y="0.119712"
               id="tspan4513">2</tspan></text>
<text
             transform="matrix(0,1,1,0,432.8391,215.2403)"
             style="font-variant:normal;font-weight:normal;font-stretch:normal;font-size:7.92000008px;font-family:Arial;-inkscape-font-specification:Arial;writing-mode:lr-tb;fill:#000000;fill-opacity:1;fill-rule:nonzero;stroke:none"
             id="text4515"><tspan
               x="0 5.7562561 10.197792"
               y="0"
               sodipodi:role="line"
               id="tspan4517">C17</tspan><tspan
               x="0.840312 5.2794719 9.7186317"
               y="27.240047"
               sodipodi:role="line"
               id="tspan4519">1nF</tspan><tspan
               x="76.440674 82.199303"
               y="-49.560192"
               sodipodi:role="line"
               id="tspan4521">R9</tspan><tspan
               x="76.561058 81.000214"
               y="-28.679905"
               sodipodi:role="line"
               id="tspan4523">12</tspan></text>
<text
             transform="matrix(0,1,1,0,404.159,300.6803)"
             style="font-variant:normal;font-weight:normal;font-stretch:normal;font-size:6.36000013px;font-family:Arial;-inkscape-font-specification:Arial;writing-mode:lr-tb;fill:#000000;fill-opacity:1;fill-rule:nonzero;stroke:none"
             id="text4525"><tspan
               x="0"
               y="0"
               id="tspan4527">K</tspan></text>
<text
             transform="matrix(0,1,1,0,389.999,283.7603)"
             style="font-variant:normal;font-weight:normal;font-stretch:normal;font-size:6.96000004px;font-family:Arial;-inkscape-font-specification:Arial;writing-mode:lr-tb;fill:#000000;fill-opacity:1;fill-rule:nonzero;stroke:none"
             id="text4529"><tspan
               x="0"
               y="0"
               id="tspan4531">1</tspan><tspan
               x="23.879761"
               y="0.119712"
               id="tspan4533">2</tspan><tspan
               x="-120.6001"
               y="-0.24011999"
               id="tspan4535">1</tspan><tspan
               x="73.199715"
               y="0.119712"
               id="tspan4537">1</tspan></text>
<text
             transform="matrix(1,0,0,-1,383.879,363.9203)"
             style="font-variant:normal;font-weight:normal;font-stretch:normal;font-size:7.92000008px;font-family:Arial;-inkscape-font-specification:Arial;writing-mode:lr-tb;fill:#000000;fill-opacity:1;fill-rule:nonzero;stroke:none"
             id="text4539"><tspan
               x="0 5.2802639 10.68012"
               y="0"
               sodipodi:role="line"
               id="tspan4541">VPV</tspan><tspan
               x="55.919952 61.319809 63.481174 69.239807 73.798561 79.55719 81.718559"
               y="95.999901"
               sodipodi:role="line"
               id="tspan4543">VIN_DIV</tspan></text>
<text
             transform="matrix(1,0,0,-1,448.679,257.8403)"
             style="font-variant:normal;font-weight:normal;font-stretch:normal;font-size:6.96000004px;font-family:Arial;-inkscape-font-specification:Arial;writing-mode:lr-tb;fill:#000000;fill-opacity:1;fill-rule:nonzero;stroke:none"
             id="text4545"><tspan
               x="0"
               y="0"
               id="tspan4547">1</tspan></text>
</g></g></g><path
       d="m 40.39313,721.37027 527.89931,0 0,1.181 -527.89931,0 0,-1.181 z"
       style="fill:#000000;fill-opacity:1;fill-rule:nonzero;stroke:none"
       id="path4549"
       inkscape:connector-curvature="0" /><path
       d="m 567.11146,149.77459 1.18093,0 0,572.18617 -1.18093,0 0,-572.18617 z"
       style="fill:#000000;fill-opacity:1;fill-rule:nonzero;stroke:none"
       id="path4551"
       inkscape:connector-curvature="0" /><path
       d="m 39.80264,149.77459 527.89931,0 0,1.18099 -527.89931,0 0,-1.18099 z"
       style="fill:#000000;fill-opacity:1;fill-rule:nonzero;stroke:none"
       id="path4553"
       inkscape:connector-curvature="0" /><path
       d="m 39.80264,150.36509 1.18101,0 0,572.18616 -1.18101,0 0,-572.18616 z"
       style="fill:#000000;fill-opacity:1;fill-rule:nonzero;stroke:none"
       id="path4555"
       inkscape:connector-curvature="0" /></g></svg>