<?xml version="1.0" encoding="UTF-8" standalone="no"?>
<!-- Created with Inkscape (http://www.inkscape.org/) -->

<svg
   xmlns:dc="http://purl.org/dc/elements/1.1/"
   xmlns:cc="http://creativecommons.org/ns#"
   xmlns:rdf="http://www.w3.org/1999/02/22-rdf-syntax-ns#"
   xmlns:svg="http://www.w3.org/2000/svg"
   xmlns="http://www.w3.org/2000/svg"
   xmlns:sodipodi="http://sodipodi.sourceforge.net/DTD/sodipodi-0.dtd"
   xmlns:inkscape="http://www.inkscape.org/namespaces/inkscape"
   id="svg3355"
   version="1.1"
   inkscape:version="0.91 r13725"
   xml:space="preserve"
   width="297mm"
   height="210mm"
   viewBox="0 0 1052.3622 744.09448"
   sodipodi:docname="pag8current.svg"><metadata
     id="metadata3361"><rdf:RDF><cc:Work
         rdf:about=""><dc:format>image/svg+xml</dc:format><dc:type
           rdf:resource="http://purl.org/dc/dcmitype/StillImage" /><dc:title></dc:title></cc:Work></rdf:RDF></metadata><defs
     id="defs3359"><clipPath
       clipPathUnits="userSpaceOnUse"
       id="clipPath3369"><path
         d="m 62.999,743 468,0 0,-15.48 -468,0 0,15.48 z"
         id="path3371"
         inkscape:connector-curvature="0"
         style="clip-rule:evenodd" /></clipPath><clipPath
       clipPathUnits="userSpaceOnUse"
       id="clipPath3375"><path
         d="m 0,792.015 612,0 0,-792 -612,0 0,792 z"
         id="path3377"
         inkscape:connector-curvature="0" /></clipPath><clipPath
       clipPathUnits="userSpaceOnUse"
       id="clipPath3393"><path
         d="m 62.999,53.96 468,0 0,-16.8 -468,0 0,16.8 z"
         id="path3395"
         inkscape:connector-curvature="0"
         style="clip-rule:evenodd" /></clipPath><clipPath
       clipPathUnits="userSpaceOnUse"
       id="clipPath3399"><path
         d="m 0,792.015 612,0 0,-792 -612,0 0,792 z"
         id="path3401"
         inkscape:connector-curvature="0" /></clipPath><clipPath
       clipPathUnits="userSpaceOnUse"
       id="clipPath3525"><path
         d="m 62.999,609.92 467.28,0 0,-218.16 -467.28,0 0,218.16 z"
         id="path3527"
         inkscape:connector-curvature="0"
         style="clip-rule:evenodd" /></clipPath><clipPath
       clipPathUnits="userSpaceOnUse"
       id="clipPath3531"><path
         d="m 0,792.015 612,0 0,-792 -612,0 0,792 z"
         id="path3533"
         inkscape:connector-curvature="0" /></clipPath><clipPath
       clipPathUnits="userSpaceOnUse"
       id="clipPath4223"><path
         d="m 314.999,375.8 214.8,0 0,-232.8 -214.8,0 0,232.8 z"
         id="path4225"
         inkscape:connector-curvature="0"
         style="clip-rule:evenodd" /></clipPath><clipPath
       clipPathUnits="userSpaceOnUse"
       id="clipPath4229"><path
         d="m 0,792.015 612,0 0,-792 -612,0 0,792 z"
         id="path4231"
         inkscape:connector-curvature="0" /></clipPath></defs><sodipodi:namedview
     pagecolor="#ffffff"
     bordercolor="#666666"
     borderopacity="1"
     objecttolerance="10"
     gridtolerance="10"
     guidetolerance="10"
     inkscape:pageopacity="0"
     inkscape:pageshadow="2"
     inkscape:window-width="1366"
     inkscape:window-height="744"
     id="namedview3357"
     showgrid="false"
     units="mm"
     inkscape:zoom="0.61313131"
     inkscape:cx="382.5"
     inkscape:cy="495"
     inkscape:window-x="0"
     inkscape:window-y="24"
     inkscape:window-maximized="1"
     inkscape:current-layer="g3363" /><g
     id="g3363"
     inkscape:groupmode="layer"
     inkscape:label="pag8"
     transform="matrix(1.25,0,0,-1.25,0,744.09448)"><text
       transform="matrix(1,0,0,-1,409.55929,31.8803)"
       style="font-variant:normal;font-weight:normal;font-stretch:normal;font-size:7.92000008px;font-family:Symbol;-inkscape-font-specification:Symbol;writing-mode:lr-tb;fill:#000000;fill-opacity:1;fill-rule:nonzero;stroke:none"
       id="text3413"><tspan
         x="0"
         y="0"
         id="tspan3415"></tspan></text>
<text
       transform="scale(1,-1)"
       style="font-variant:normal;font-weight:normal;font-stretch:normal;font-size:9px;font-family:Arial;-inkscape-font-specification:Arial;writing-mode:lr-tb;fill:#000000;fill-opacity:1;fill-rule:nonzero;stroke:none"
       id="text3435"
       x="134.4498"
       y="-579.89008"><tspan
         x="134.4498"
         y="-579.89008"
         id="tspan3437">,</tspan></text>
<g
       id="g3521"
       transform="matrix(1.6589786,0,0,1.6589786,-70.343987,-530.35388)"><g
         id="g3523"
         clip-path="url(#clipPath3525)"><g
           id="g3529"
           clip-path="url(#clipPath3531)"><path
             d="m 290.399,512.96 0.23999,0 0,0.47998 -0.23999,0 0,-0.47998 z"
             style="fill:#ffffff;fill-opacity:1;fill-rule:nonzero;stroke:none"
             id="path3535"
             inkscape:connector-curvature="0" /><path
             d="m 290.639,512.96 9.96,0 0,0.47998 -9.96,0 0,-0.47998 z"
             style="fill:#ffffff;fill-opacity:1;fill-rule:nonzero;stroke:none"
             id="path3537"
             inkscape:connector-curvature="0" /><path
             d="m 307.679,517.16 0.47998,0 0,0.23999 -0.47998,0 0,-0.23999 z"
             style="fill:#ffffff;fill-opacity:1;fill-rule:nonzero;stroke:none"
             id="path3539"
             inkscape:connector-curvature="0" /><path
             d="m 307.679,517.4 0.47998,0 0,5.04 -0.47998,0 0,-5.04 z"
             style="fill:#ffffff;fill-opacity:1;fill-rule:nonzero;stroke:none"
             id="path3541"
             inkscape:connector-curvature="0" /><path
             d="m 329.519,505.88 0.23999,0 0,0.48001 -0.23999,0 0,-0.48001 z"
             style="fill:#ffffff;fill-opacity:1;fill-rule:nonzero;stroke:none"
             id="path3543"
             inkscape:connector-curvature="0" /><path
             d="m 329.759,505.88 8.16,0 0,0.48001 -8.16,0 0,-0.48001 z"
             style="fill:#ffffff;fill-opacity:1;fill-rule:nonzero;stroke:none"
             id="path3545"
             inkscape:connector-curvature="0" /><path
             d="m 307.679,489.08 0.47998,0 0,0.23999 -0.47998,0 0,-0.23999 z"
             style="fill:#ffffff;fill-opacity:1;fill-rule:nonzero;stroke:none"
             id="path3547"
             inkscape:connector-curvature="0" /><path
             d="m 307.679,489.32 0.47998,0 0,5.64 -0.47998,0 0,-5.64 z"
             style="fill:#ffffff;fill-opacity:1;fill-rule:nonzero;stroke:none"
             id="path3549"
             inkscape:connector-curvature="0" /><path
             d="m 289.919,498.68 0.23999,0 0,0.48001 -0.23999,0 0,-0.48001 z"
             style="fill:#ffffff;fill-opacity:1;fill-rule:nonzero;stroke:none"
             id="path3551"
             inkscape:connector-curvature="0" /><path
             d="m 290.159,498.68 10.56,0 0,0.48001 -10.56,0 0,-0.48001 z"
             style="fill:#ffffff;fill-opacity:1;fill-rule:nonzero;stroke:none"
             id="path3553"
             inkscape:connector-curvature="0" /><g
             id="g3555"
             transform="translate(311.999,579.44)"><path
               d="m 0,0 0,14.52 4.68,0 L 3.84,13.2 3.36,12.48 2.88,11.4 2.4,9.24 2.16,7.92 2.16,6.6 2.4,5.16 2.64,4.08 3,2.88 3.48,1.92 3.84,1.32 4.68,0"
               style="fill:#ffffff;fill-opacity:1;fill-rule:evenodd;stroke:none"
               id="path3557"
               inkscape:connector-curvature="0" /></g><path
             d="m 311.999,579.44 0.12,0 0,14.52 -0.12,0 0,-14.52 z"
             style="fill:#ffffff;fill-opacity:1;fill-rule:nonzero;stroke:none"
             id="path3559"
             inkscape:connector-curvature="0" /><g
             id="g3561"
             transform="translate(311.999,593.96)"><path
               d="M 0,0 4.92,0 4.8,-0.12 3.96,-1.44 3.48,-2.16 l -0.12,0.12 0.12,0 -0.48,-1.08 -0.12,0 0.12,0 -0.48,-2.16 -0.12,0 0.12,0 -0.24,-1.32 -0.12,0 0.12,0 0,-1.32 -0.12,0 0.12,0 0.24,-1.44 -0.12,0 0.12,0 0.24,-1.08 -0.12,0 0.12,0 0.36,-1.2 -0.12,0 0.12,0 0.48,-0.96 -0.12,-0.12 0.12,0.12 0.36,-0.6 -0.12,-0.12 0.12,0.12 0.84,-1.32 0.12,-0.12 -0.24,0 -0.84,1.32 -0.36,0.6 0.36,-0.6 -0.84,1.68 -0.36,1.2 -0.24,1.08 -0.24,1.44 0,1.32 0.24,1.32 0.48,2.16 0.48,1.08 0.48,0.72 L 3.96,-1.44 3.84,-1.32 4.68,0 4.8,-0.12 0,-0.12"
               style="fill:#ffffff;fill-opacity:1;fill-rule:nonzero;stroke:none"
               id="path3563"
               inkscape:connector-curvature="0" /></g><path
             d="m 311.999,579.32 4.68,0 0,0.12 -4.68,0 0,-0.12 z"
             style="fill:#ffffff;fill-opacity:1;fill-rule:nonzero;stroke:none"
             id="path3565"
             inkscape:connector-curvature="0" /><g
             id="g3567"
             transform="translate(243.119,407.72)"><path
               d="m 0,0 6.48,-6.36 1.44,0 L 14.4,0"
               style="fill:#ffffff;fill-opacity:1;fill-rule:evenodd;stroke:none"
               id="path3569"
               inkscape:connector-curvature="0" /></g><g
             id="g3571"
             transform="translate(243.239,407.72)"><path
               d="m 0,0 6.48,-6.36 -0.12,-0.12 0,0.24 1.44,0 0.12,-0.24 -0.12,0.12 6.48,6.36 0,0.12 0.36,0 -0.24,-0.24 -6.48,-6.36 -1.56,0 -6.48,6.36"
               style="fill:#ffffff;fill-opacity:1;fill-rule:nonzero;stroke:none"
               id="path3573"
               inkscape:connector-curvature="0" /></g><g
             id="g3575"
             transform="translate(257.519,407.6)"><path
               d="M 0,0 -14.4,0 -14.64,0.24 0,0.24"
               style="fill:#ffffff;fill-opacity:1;fill-rule:nonzero;stroke:none"
               id="path3577"
               inkscape:connector-curvature="0" /></g><path
             d="m 311.519,579.2 0.47998,0 0,0.23999 -0.47998,0 0,-0.23999 z"
             style="fill:#000000;fill-opacity:1;fill-rule:nonzero;stroke:none"
             id="path3579"
             inkscape:connector-curvature="0" /><path
             d="m 311.519,579.44 0.47998,0 0,14.64 -0.47998,0 0,-14.64 z"
             style="fill:#000000;fill-opacity:1;fill-rule:nonzero;stroke:none"
             id="path3581"
             inkscape:connector-curvature="0" /><path
             d="m 314.879,586.4 0.23999,0 0,0.47998 -0.23999,0 0,-0.47998 z"
             style="fill:#000000;fill-opacity:1;fill-rule:nonzero;stroke:none"
             id="path3583"
             inkscape:connector-curvature="0" /><path
             d="m 315.119,586.4 4.56,0 0,0.47998 -4.56,0 0,-0.47998 z"
             style="fill:#000000;fill-opacity:1;fill-rule:nonzero;stroke:none"
             id="path3585"
             inkscape:connector-curvature="0" /><g
             id="g3587"
             transform="translate(314.639,586.88)"><path
               d="M 0,0 -0.24,-0.24 0,-0.48 0.24,-0.24 0,0"
               style="fill:#000000;fill-opacity:1;fill-rule:nonzero;stroke:none"
               id="path3589"
               inkscape:connector-curvature="0" /></g><g
             id="g3591"
             transform="translate(314.399,586.64)"><path
               d="m 0,0 0.12,1.92 0,0.12 0.48,1.8 0.48,-0.24 0,0.12 L 0.6,1.92 0.48,0"
               style="fill:#000000;fill-opacity:1;fill-rule:nonzero;stroke:none"
               id="path3593"
               inkscape:connector-curvature="0" /></g><g
             id="g3595"
             transform="translate(314.999,590.48)"><path
               d="m 0,0 0.72,1.68 0.12,0 L 1.2,1.44 0.48,-0.24"
               style="fill:#000000;fill-opacity:1;fill-rule:nonzero;stroke:none"
               id="path3597"
               inkscape:connector-curvature="0" /></g><g
             id="g3599"
             transform="translate(316.919,593.84)"><path
               d="M 0,0 -0.24,-0.24 -0.12,-0.36 0,-0.48 0.12,-0.36 0.24,-0.24 0,0"
               style="fill:#000000;fill-opacity:1;fill-rule:nonzero;stroke:none"
               id="path3601"
               inkscape:connector-curvature="0" /></g><g
             id="g3603"
             transform="translate(315.839,592.16)"><path
               d="M 0,0 0.36,-0.24 1.32,1.32 0.96,1.56"
               style="fill:#000000;fill-opacity:1;fill-rule:nonzero;stroke:none"
               id="path3605"
               inkscape:connector-curvature="0" /></g><g
             id="g3607"
             transform="translate(316.919,579.92)"><path
               d="M 0,0 -0.24,-0.24 0,-0.48 0.24,-0.24 0,0"
               style="fill:#000000;fill-opacity:1;fill-rule:nonzero;stroke:none"
               id="path3609"
               inkscape:connector-curvature="0" /></g><g
             id="g3611"
             transform="translate(316.799,579.56)"><path
               d="m 0,0 -0.96,1.68 -0.12,0 -0.72,1.68 0,0.12 0.48,0.12 0.72,-1.68 0.96,-1.68"
               style="fill:#000000;fill-opacity:1;fill-rule:nonzero;stroke:none"
               id="path3613"
               inkscape:connector-curvature="0" /></g><g
             id="g3615"
             transform="translate(314.999,583.04)"><path
               d="M 0,0 -0.48,1.8 0,1.8 0,1.92 0.48,0.12"
               style="fill:#000000;fill-opacity:1;fill-rule:nonzero;stroke:none"
               id="path3617"
               inkscape:connector-curvature="0" /></g><g
             id="g3619"
             transform="translate(314.639,586.88)"><path
               d="M 0,0 -0.24,-0.24 0,-0.48 0.24,-0.24 0,0"
               style="fill:#000000;fill-opacity:1;fill-rule:nonzero;stroke:none"
               id="path3621"
               inkscape:connector-curvature="0" /></g><g
             id="g3623"
             transform="translate(314.519,584.84)"><path
               d="m 0,0 0.48,0 -0.12,1.8 -0.48,0"
               style="fill:#000000;fill-opacity:1;fill-rule:nonzero;stroke:none"
               id="path3625"
               inkscape:connector-curvature="0" /></g><path
             d="m 242.999,407.48 0.23999,0 0,0.48001 -0.23999,0 0,-0.48001 z"
             style="fill:#000000;fill-opacity:1;fill-rule:nonzero;stroke:none"
             id="path3627"
             inkscape:connector-curvature="0" /><path
             d="m 243.239,407.48 14.64,0 0,0.48001 -14.64,0 0,-0.48001 z"
             style="fill:#000000;fill-opacity:1;fill-rule:nonzero;stroke:none"
             id="path3629"
             inkscape:connector-curvature="0" /><path
             d="m 245.159,405.32 0.24001,0 0,0.48001 -0.24001,0 0,-0.48001 z"
             style="fill:#000000;fill-opacity:1;fill-rule:nonzero;stroke:none"
             id="path3631"
             inkscape:connector-curvature="0" /><path
             d="m 245.399,405.32 10.32,0 0,0.48001 -10.32,0 0,-0.48001 z"
             style="fill:#000000;fill-opacity:1;fill-rule:nonzero;stroke:none"
             id="path3633"
             inkscape:connector-curvature="0" /><path
             d="m 253.319,403.16 0.24001,0 0,0.48001 -0.24001,0 0,-0.48001 z"
             style="fill:#000000;fill-opacity:1;fill-rule:nonzero;stroke:none"
             id="path3635"
             inkscape:connector-curvature="0" /><path
             d="m 247.319,403.16 6,0 0,0.48001 -6,0 0,-0.48001 z"
             style="fill:#000000;fill-opacity:1;fill-rule:nonzero;stroke:none"
             id="path3637"
             inkscape:connector-curvature="0" /><path
             d="m 249.479,401 0.23999,0 0,0.48001 -0.23999,0 0,-0.48001 z"
             style="fill:#000000;fill-opacity:1;fill-rule:nonzero;stroke:none"
             id="path3639"
             inkscape:connector-curvature="0" /><path
             d="m 249.719,401 1.68,0 0,0.48001 -1.68,0 0,-0.48001 z"
             style="fill:#000000;fill-opacity:1;fill-rule:nonzero;stroke:none"
             id="path3641"
             inkscape:connector-curvature="0" /><text
             transform="matrix(1,0,0,-1,294.719,514.6403)"
             style="font-variant:normal;font-weight:normal;font-stretch:normal;font-size:6.96000004px;font-family:Arial;-inkscape-font-specification:Arial;writing-mode:lr-tb;fill:#000000;fill-opacity:1;fill-rule:nonzero;stroke:none"
             id="text3643"><tspan
               x="0"
               y="0"
               id="tspan3645">6</tspan><tspan
               x="0"
               y="14.40024"
               id="tspan3647">5</tspan><tspan
               x="35.999905"
               y="7.20012"
               id="tspan3649">7</tspan></text>
<text
             transform="matrix(1,0,0,-1,300.479,524.6003)"
             style="font-variant:normal;font-weight:normal;font-stretch:normal;font-size:7.92000008px;font-family:Arial;-inkscape-font-specification:Arial;writing-mode:lr-tb;fill:#000000;fill-opacity:1;fill-rule:nonzero;stroke:none"
             id="text3651"><tspan
               x="0 5.7586322 10.317384 12.478752"
               y="0"
               sodipodi:role="line"
               id="tspan3653">U2.2</tspan></text>
<path
             d="m 307.919,522.8 0.48001,0 0,0.24005 -0.48001,0 0,-0.24005 z"
             style="fill:#000000;fill-opacity:1;fill-rule:nonzero;stroke:none"
             id="path3655"
             inkscape:connector-curvature="0" /><path
             d="m 307.919,516.56 0.48001,0 0,6.24 -0.48001,0 0,-6.24 z"
             style="fill:#000000;fill-opacity:1;fill-rule:nonzero;stroke:none"
             id="path3657"
             inkscape:connector-curvature="0" /><path
             d="m 307.919,495.2 0.48001,0 0,0.23999 -0.48001,0 0,-0.23999 z"
             style="fill:#000000;fill-opacity:1;fill-rule:nonzero;stroke:none"
             id="path3659"
             inkscape:connector-curvature="0" /><path
             d="m 307.919,488.72 0.48001,0 0,6.48 -0.48001,0 0,-6.48 z"
             style="fill:#000000;fill-opacity:1;fill-rule:nonzero;stroke:none"
             id="path3661"
             inkscape:connector-curvature="0" /><path
             d="m 329.519,505.76 0.23999,0 0,0.48001 -0.23999,0 0,-0.48001 z"
             style="fill:#000000;fill-opacity:1;fill-rule:nonzero;stroke:none"
             id="path3663"
             inkscape:connector-curvature="0" /><path
             d="m 329.759,505.76 70.44,0 0,0.48001 -70.44,0 0,-0.48001 z"
             style="fill:#000000;fill-opacity:1;fill-rule:nonzero;stroke:none"
             id="path3665"
             inkscape:connector-curvature="0" /><path
             d="m 279.479,586.4 0.23999,0 0,0.47998 -0.23999,0 0,-0.47998 z"
             style="fill:#000000;fill-opacity:1;fill-rule:nonzero;stroke:none"
             id="path3667"
             inkscape:connector-curvature="0" /><path
             d="m 279.719,586.4 32.28,0 0,0.47998 -32.28,0 0,-0.47998 z"
             style="fill:#000000;fill-opacity:1;fill-rule:nonzero;stroke:none"
             id="path3669"
             inkscape:connector-curvature="0" /><path
             d="m 318.719,586.4 0.24002,0 0,0.47998 -0.24002,0 0,-0.47998 z"
             style="fill:#000000;fill-opacity:1;fill-rule:nonzero;stroke:none"
             id="path3671"
             inkscape:connector-curvature="0" /><path
             d="m 318.959,586.4 37.2,0 0,0.47998 -37.2,0 0,-0.47998 z"
             style="fill:#000000;fill-opacity:1;fill-rule:nonzero;stroke:none"
             id="path3673"
             inkscape:connector-curvature="0" /><path
             d="m 290.039,498.56 0.23999,0 0,0.48001 -0.23999,0 0,-0.48001 z"
             style="fill:#000000;fill-opacity:1;fill-rule:nonzero;stroke:none"
             id="path3675"
             inkscape:connector-curvature="0" /><path
             d="m 290.279,498.56 11.04,0 0,0.48001 -11.04,0 0,-0.48001 z"
             style="fill:#000000;fill-opacity:1;fill-rule:nonzero;stroke:none"
             id="path3677"
             inkscape:connector-curvature="0" /><path
             d="m 301.079,512.96 0.23999,0 0,0.47998 -0.23999,0 0,-0.47998 z"
             style="fill:#000000;fill-opacity:1;fill-rule:nonzero;stroke:none"
             id="path3679"
             inkscape:connector-curvature="0" /><path
             d="m 265.799,512.96 35.28,0 0,0.47998 -35.28,0 0,-0.47998 z"
             style="fill:#000000;fill-opacity:1;fill-rule:nonzero;stroke:none"
             id="path3681"
             inkscape:connector-curvature="0" /><g
             id="g3683"
             transform="translate(300.839,491.6)"><path
               d="M 0,0 0,28.8 28.92,14.4"
               style="fill:#ffffff;fill-opacity:1;fill-rule:evenodd;stroke:none"
               id="path3685"
               inkscape:connector-curvature="0" /></g><g
             id="g3687"
             transform="translate(300.599,491.6)"><path
               d="m 0,0 0,29.16 0.36,-0.12 28.92,-14.4 0.48,-0.24 -0.48,-0.24 -0.24,0 -28.92,14.4 0.24,0.48 0.12,-0.24 0,-28.8"
               style="fill:#000000;fill-opacity:1;fill-rule:nonzero;stroke:none"
               id="path3689"
               inkscape:connector-curvature="0" /></g><g
             id="g3691"
             transform="translate(329.879,505.76)"><path
               d="m 0,0 -28.92,-14.4 -0.36,-0.12 0,0.36 0.12,0.24 28.92,14.4"
               style="fill:#000000;fill-opacity:1;fill-rule:nonzero;stroke:none"
               id="path3693"
               inkscape:connector-curvature="0" /></g><path
             d="m 305.159,499.16 0.24002,0 0,0.47998 -0.24002,0 0,-0.47998 z"
             style="fill:#000000;fill-opacity:1;fill-rule:nonzero;stroke:none"
             id="path3695"
             inkscape:connector-curvature="0" /><path
             d="m 302.759,499.16 2.4,0 0,0.47998 -2.4,0 0,-0.47998 z"
             style="fill:#000000;fill-opacity:1;fill-rule:nonzero;stroke:none"
             id="path3697"
             inkscape:connector-curvature="0" /><path
             d="m 303.839,498.08 0.48001,0 0,0.23999 -0.48001,0 0,-0.23999 z"
             style="fill:#000000;fill-opacity:1;fill-rule:nonzero;stroke:none"
             id="path3699"
             inkscape:connector-curvature="0" /><path
             d="m 303.839,498.32 0.48001,0 0,2.4 -0.48001,0 0,-2.4 z"
             style="fill:#000000;fill-opacity:1;fill-rule:nonzero;stroke:none"
             id="path3701"
             inkscape:connector-curvature="0" /><path
             d="m 305.159,513.56 0.24002,0 0,0.48004 -0.24002,0 0,-0.48004 z"
             style="fill:#000000;fill-opacity:1;fill-rule:nonzero;stroke:none"
             id="path3703"
             inkscape:connector-curvature="0" /><path
             d="m 302.759,513.56 2.4,0 0,0.48004 -2.4,0 0,-0.48004 z"
             style="fill:#000000;fill-opacity:1;fill-rule:nonzero;stroke:none"
             id="path3705"
             inkscape:connector-curvature="0" /><path
             d="m 205.079,453.8 0.24001,0 0,0.48001 -0.24001,0 0,-0.48001 z"
             style="fill:#ffffff;fill-opacity:1;fill-rule:nonzero;stroke:none"
             id="path3707"
             inkscape:connector-curvature="0" /><g
             id="g3709"
             transform="translate(205.319,454.28)"><path
               d="M 0,0 1.92,0 2.16,-0.36 1.68,-0.24 3,3.96 3.24,4.68 3.48,3.96 6.6,-4.56 l 0,-0.12 -0.48,0.12 2.76,9 0.24,0.72 3.24,-9.72 0,-0.12 -0.48,0.12 2.88,8.88 0.24,0.72 0.24,-0.72 2.88,-8.88 0,-0.12 -0.24,-0.72 -0.24,0.72 -2.88,8.88 0.48,0.12 0,-0.12 -2.88,-8.88 -0.24,-0.72 -3.24,9.72 0.48,0.12 0,-0.12 -2.76,-9 L 6.36,-5.4 6.12,-4.68 3,3.84 l 0.48,0.12 0,-0.12 -1.32,-4.2 0,-0.12 -2.16,0"
               style="fill:#ffffff;fill-opacity:1;fill-rule:nonzero;stroke:none"
               id="path3711"
               inkscape:connector-curvature="0" /></g><g
             id="g3713"
             transform="translate(222.959,449.72)"><path
               d="m 0,0 1.32,4.32 0.12,0.24 0.12,0 L 1.8,4.2 0.48,-0.12"
               style="fill:#ffffff;fill-opacity:1;fill-rule:nonzero;stroke:none"
               id="path3715"
               inkscape:connector-curvature="0" /></g><path
             d="m 224.519,453.8 2.88,0 0,0.48001 -2.88,0 0,-0.48001 z"
             style="fill:#ffffff;fill-opacity:1;fill-rule:nonzero;stroke:none"
             id="path3717"
             inkscape:connector-curvature="0" /><path
             d="m 203.999,453.68 0.23999,0 0,0.47998 -0.23999,0 0,-0.47998 z"
             style="fill:#ffffff;fill-opacity:1;fill-rule:nonzero;stroke:none"
             id="path3719"
             inkscape:connector-curvature="0" /><path
             d="m 204.239,453.68 23.76,0 0,0.47998 -23.76,0 0,-0.47998 z"
             style="fill:#ffffff;fill-opacity:1;fill-rule:nonzero;stroke:none"
             id="path3721"
             inkscape:connector-curvature="0" /><g
             id="g3723"
             transform="translate(207.359,454.04)"><path
               d="m 0,0 1.2,4.32 3,-8.64 2.88,8.64 3,-8.64 3,8.64 2.76,-8.64 1.44,4.08"
               style="fill:#ffffff;fill-opacity:1;fill-rule:evenodd;stroke:none"
               id="path3725"
               inkscape:connector-curvature="0" /></g><g
             id="g3727"
             transform="translate(207.119,454.04)"><path
               d="m 0,0 0,-0.24 0.48,-0.12 0,0.24"
               style="fill:#000000;fill-opacity:1;fill-rule:nonzero;stroke:none"
               id="path3729"
               inkscape:connector-curvature="0" /></g><g
             id="g3731"
             transform="translate(207.119,454.04)"><path
               d="m 0,0 1.2,4.32 0.24,0.72 0.24,-0.72 3,-8.64 0,-0.12 -0.48,0.12 3.12,9.36 0.24,-0.72 3,-8.64 0,-0.12 -0.48,0.12 3,8.64 0.24,0.72 0.24,-0.72 0,-0.12 -3,-8.64 -0.24,-0.72 -0.24,0.72 -3,8.64 0.48,0.12 0,-0.12 -3.12,-9.36 -0.24,0.72 -3,8.64 0.48,0.12 0,-0.12 -1.2,-4.32"
               style="fill:#000000;fill-opacity:1;fill-rule:nonzero;stroke:none"
               id="path3733"
               inkscape:connector-curvature="0" /></g><g
             id="g3735"
             transform="translate(220.679,458.36)"><path
               d="m 0,0 2.76,-8.64 0,-0.12 -0.24,-0.72 -0.24,0.72 -2.76,8.64"
               style="fill:#000000;fill-opacity:1;fill-rule:nonzero;stroke:none"
               id="path3737"
               inkscape:connector-curvature="0" /></g><g
             id="g3739"
             transform="translate(224.399,453.8)"><path
               d="m 0,0 0,0.24 0.48,-0.12 0,-0.24"
               style="fill:#000000;fill-opacity:1;fill-rule:nonzero;stroke:none"
               id="path3741"
               inkscape:connector-curvature="0" /></g><g
             id="g3743"
             transform="translate(222.959,449.72)"><path
               d="M 0,0 0.48,-0.12 1.92,3.96 1.44,4.08"
               style="fill:#000000;fill-opacity:1;fill-rule:nonzero;stroke:none"
               id="path3745"
               inkscape:connector-curvature="0" /></g><g
             id="g3747"
             transform="translate(204.599,454.04)"><path
               d="M 0,0 -0.24,0.24 -0.48,0 -0.24,-0.24 0,0"
               style="fill:#000000;fill-opacity:1;fill-rule:nonzero;stroke:none"
               id="path3749"
               inkscape:connector-curvature="0" /></g><g
             id="g3751"
             transform="translate(207.599,454.04)"><path
               d="M 0,0 -0.24,0.24 -0.48,0 -0.24,-0.24 0,0"
               style="fill:#000000;fill-opacity:1;fill-rule:nonzero;stroke:none"
               id="path3753"
               inkscape:connector-curvature="0" /></g><path
             d="m 204.359,453.8 3,0 0,0.48001 -3,0 0,-0.48001 z"
             style="fill:#000000;fill-opacity:1;fill-rule:nonzero;stroke:none"
             id="path3755"
             inkscape:connector-curvature="0" /><g
             id="g3757"
             transform="translate(224.999,454.04)"><path
               d="M 0,0 -0.24,0.24 -0.48,0 -0.24,-0.24 0,0"
               style="fill:#000000;fill-opacity:1;fill-rule:nonzero;stroke:none"
               id="path3759"
               inkscape:connector-curvature="0" /></g><g
             id="g3761"
             transform="translate(227.999,454.04)"><path
               d="M 0,0 -0.24,0.24 -0.48,0 -0.24,-0.24 0,0"
               style="fill:#000000;fill-opacity:1;fill-rule:nonzero;stroke:none"
               id="path3763"
               inkscape:connector-curvature="0" /></g><path
             d="m 224.759,453.8 3,0 0,0.48001 -3,0 0,-0.48001 z"
             style="fill:#000000;fill-opacity:1;fill-rule:nonzero;stroke:none"
             id="path3765"
             inkscape:connector-curvature="0" /><path
             d="m 113.639,446.12 12.96,0 0,31.8 -12.96,0 0,-31.8 z"
             style="fill:#ffffff;fill-opacity:1;fill-rule:nonzero;stroke:none"
             id="path3767"
             inkscape:connector-curvature="0" /><path
             d="m 113.639,477.68 13.2,0 0,0.48001 -13.2,0 0,-0.48001 z"
             style="fill:#000000;fill-opacity:1;fill-rule:nonzero;stroke:none"
             id="path3769"
             inkscape:connector-curvature="0" /><path
             d="m 126.359,445.88 0.48,0 0,32.04 -0.48,0 0,-32.04 z"
             style="fill:#000000;fill-opacity:1;fill-rule:nonzero;stroke:none"
             id="path3771"
             inkscape:connector-curvature="0" /><path
             d="m 113.399,445.88 13.2,0 0,0.48001 -13.2,0 0,-0.48001 z"
             style="fill:#000000;fill-opacity:1;fill-rule:nonzero;stroke:none"
             id="path3773"
             inkscape:connector-curvature="0" /><path
             d="m 113.399,446.12 0.48001,0 0,32.04 -0.48001,0 0,-32.04 z"
             style="fill:#000000;fill-opacity:1;fill-rule:nonzero;stroke:none"
             id="path3775"
             inkscape:connector-curvature="0" /><path
             d="m 126.599,470.12 24.48,0 0,0.47998 -24.48,0 0,-0.47998 z"
             style="fill:#000000;fill-opacity:1;fill-rule:nonzero;stroke:none"
             id="path3777"
             inkscape:connector-curvature="0" /><path
             d="m 126.599,453.68 78,0 0,0.47998 -78,0 0,-0.47998 z"
             style="fill:#000000;fill-opacity:1;fill-rule:nonzero;stroke:none"
             id="path3779"
             inkscape:connector-curvature="0" /><path
             d="m 150.599,470.12 0.48,0 0,24.48 -0.48,0 0,-24.48 z"
             style="fill:#000000;fill-opacity:1;fill-rule:nonzero;stroke:none"
             id="path3781"
             inkscape:connector-curvature="0" /><path
             d="m 144.839,494.12 12.36,0 0,0.47998 -12.36,0 0,-0.47998 z"
             style="fill:#000000;fill-opacity:1;fill-rule:nonzero;stroke:none"
             id="path3783"
             inkscape:connector-curvature="0" /><path
             d="m 205.079,422.84 0.24001,0 0,0.47998 -0.24001,0 0,-0.47998 z"
             style="fill:#ffffff;fill-opacity:1;fill-rule:nonzero;stroke:none"
             id="path3785"
             inkscape:connector-curvature="0" /><g
             id="g3787"
             transform="translate(205.319,423.32)"><path
               d="M 0,0 1.92,0 2.16,-0.36 1.68,-0.24 3,3.84 3.24,4.56 3.48,3.84 l 3.12,-8.4 0,-0.12 -0.48,0.12 2.76,9 0.24,0.72 3.24,-9.72 0,-0.12 -0.48,0.12 2.88,8.76 0.24,0.72 0.24,-0.72 2.88,-8.76 0,-0.12 -0.24,-0.72 -0.24,0.72 -2.88,8.76 0.48,0.12 0,-0.12 -2.88,-8.76 -0.24,-0.72 -3.24,9.72 0.48,0.12 0,-0.12 -2.76,-9 L 6.36,-5.4 6.12,-4.68 3,3.72 l 0.48,0.12 0,-0.12 -1.32,-4.08 0,-0.12 -2.16,0"
               style="fill:#ffffff;fill-opacity:1;fill-rule:nonzero;stroke:none"
               id="path3789"
               inkscape:connector-curvature="0" /></g><g
             id="g3791"
             transform="translate(222.959,418.76)"><path
               d="m 0,0 1.32,4.32 0.12,0.24 0.12,0 L 1.8,4.2 0.48,-0.12"
               style="fill:#ffffff;fill-opacity:1;fill-rule:nonzero;stroke:none"
               id="path3793"
               inkscape:connector-curvature="0" /></g><path
             d="m 224.519,422.84 2.88,0 0,0.47998 -2.88,0 0,-0.47998 z"
             style="fill:#ffffff;fill-opacity:1;fill-rule:nonzero;stroke:none"
             id="path3795"
             inkscape:connector-curvature="0" /><path
             d="m 203.999,422.72 24,0 0,0.48001 -24,0 0,-0.48001 z"
             style="fill:#ffffff;fill-opacity:1;fill-rule:nonzero;stroke:none"
             id="path3797"
             inkscape:connector-curvature="0" /><g
             id="g3799"
             transform="translate(207.359,422.96)"><path
               d="m 0,0 1.2,4.44 3,-8.64 2.88,8.64 3,-8.64 3,8.64 2.76,-8.64 1.44,4.08"
               style="fill:#ffffff;fill-opacity:1;fill-rule:evenodd;stroke:none"
               id="path3801"
               inkscape:connector-curvature="0" /></g><g
             id="g3803"
             transform="translate(207.119,422.96)"><path
               d="m 0,0 0,-0.24 0.48,-0.12 0,0.24"
               style="fill:#000000;fill-opacity:1;fill-rule:nonzero;stroke:none"
               id="path3805"
               inkscape:connector-curvature="0" /></g><g
             id="g3807"
             transform="translate(207.119,422.96)"><path
               d="m 0,0 1.2,4.44 0.24,0.72 0.24,-0.72 3,-8.64 0,-0.12 -0.48,0.12 3.12,9.36 0.24,-0.72 3,-8.64 0,-0.12 -0.48,0.12 3,8.64 0.24,0.72 0.24,-0.72 0,-0.12 -3,-8.64 -0.24,-0.72 -0.24,0.72 -3,8.64 0.48,0.12 0,-0.12 -3.12,-9.36 -0.24,0.72 -3,8.64 0.48,0.12 0,-0.12 -1.2,-4.44"
               style="fill:#000000;fill-opacity:1;fill-rule:nonzero;stroke:none"
               id="path3809"
               inkscape:connector-curvature="0" /></g><g
             id="g3811"
             transform="translate(220.679,427.4)"><path
               d="m 0,0 2.76,-8.64 0,-0.12 -0.24,-0.72 -0.24,0.72 -2.76,8.64"
               style="fill:#000000;fill-opacity:1;fill-rule:nonzero;stroke:none"
               id="path3813"
               inkscape:connector-curvature="0" /></g><g
             id="g3815"
             transform="translate(224.399,422.84)"><path
               d="m 0,0 0,0.24 0.48,-0.12 0,-0.24"
               style="fill:#000000;fill-opacity:1;fill-rule:nonzero;stroke:none"
               id="path3817"
               inkscape:connector-curvature="0" /></g><g
             id="g3819"
             transform="translate(222.959,418.76)"><path
               d="M 0,0 0.48,-0.12 1.92,3.96 1.44,4.08"
               style="fill:#000000;fill-opacity:1;fill-rule:nonzero;stroke:none"
               id="path3821"
               inkscape:connector-curvature="0" /></g><g
             id="g3823"
             transform="translate(204.599,422.96)"><path
               d="M 0,0 -0.24,0.24 -0.48,0 -0.24,-0.24 0,0"
               style="fill:#000000;fill-opacity:1;fill-rule:nonzero;stroke:none"
               id="path3825"
               inkscape:connector-curvature="0" /></g><g
             id="g3827"
             transform="translate(207.599,422.96)"><path
               d="M 0,0 -0.24,0.24 -0.48,0 -0.24,-0.24 0,0"
               style="fill:#000000;fill-opacity:1;fill-rule:nonzero;stroke:none"
               id="path3829"
               inkscape:connector-curvature="0" /></g><path
             d="m 204.359,422.72 3,0 0,0.48001 -3,0 0,-0.48001 z"
             style="fill:#000000;fill-opacity:1;fill-rule:nonzero;stroke:none"
             id="path3831"
             inkscape:connector-curvature="0" /><g
             id="g3833"
             transform="translate(224.999,422.96)"><path
               d="M 0,0 -0.24,0.24 -0.48,0 -0.24,-0.24 0,0"
               style="fill:#000000;fill-opacity:1;fill-rule:nonzero;stroke:none"
               id="path3835"
               inkscape:connector-curvature="0" /></g><g
             id="g3837"
             transform="translate(227.999,422.96)"><path
               d="M 0,0 -0.24,0.24 -0.48,0 -0.24,-0.24 0,0"
               style="fill:#000000;fill-opacity:1;fill-rule:nonzero;stroke:none"
               id="path3839"
               inkscape:connector-curvature="0" /></g><path
             d="m 224.759,422.72 3,0 0,0.48001 -3,0 0,-0.48001 z"
             style="fill:#000000;fill-opacity:1;fill-rule:nonzero;stroke:none"
             id="path3841"
             inkscape:connector-curvature="0" /><path
             d="m 186.479,422.72 18.36,0 0,0.48001 -18.36,0 0,-0.48001 z"
             style="fill:#000000;fill-opacity:1;fill-rule:nonzero;stroke:none"
             id="path3843"
             inkscape:connector-curvature="0" /><path
             d="m 186.359,422.72 0.48001,0 0,90.72 -0.48001,0 0,-90.72 z"
             style="fill:#000000;fill-opacity:1;fill-rule:nonzero;stroke:none"
             id="path3845"
             inkscape:connector-curvature="0" /><path
             d="m 226.559,453.68 24.48,0 0,0.47998 -24.48,0 0,-0.47998 z"
             style="fill:#000000;fill-opacity:1;fill-rule:nonzero;stroke:none"
             id="path3847"
             inkscape:connector-curvature="0" /><path
             d="m 226.559,422.72 45.48,0 0,0.48001 -45.48,0 0,-0.48001 z"
             style="fill:#000000;fill-opacity:1;fill-rule:nonzero;stroke:none"
             id="path3849"
             inkscape:connector-curvature="0" /><path
             d="m 250.319,407.6 0.48,0 0,46.44 -0.48,0 0,-46.44 z"
             style="fill:#000000;fill-opacity:1;fill-rule:nonzero;stroke:none"
             id="path3851"
             inkscape:connector-curvature="0" /><g
             id="g3853"
             transform="translate(251.279,422.72)"><path
               d="m 0,0 0,0.36 -0.24,0.36 -0.36,0.24 -0.72,0 -0.36,-0.24 -0.24,-0.36 0,-0.72 0.24,-0.36 0.36,-0.24 0.72,0 0.36,0.24 L 0,-0.36 0,0"
               style="fill:#000000;fill-opacity:1;fill-rule:evenodd;stroke:none"
               id="path3855"
               inkscape:connector-curvature="0" /></g><g
             id="g3857"
             transform="translate(250.799,422.72)"><path
               d="M 0,0 0,0.36 0.12,0.12 -0.12,0.48 0,0.24 l -0.36,0.24 0.24,0 -0.72,0 0.24,0 -0.36,-0.24 0.24,0.24 -0.24,-0.36 0,0.24 0,-0.72 0,0.24 0.24,-0.36 -0.24,0.12 0.36,-0.24 -0.24,0.12 0.72,0 L -0.36,-0.6 0,-0.36 -0.12,-0.48 0.12,-0.12 0,-0.36 0,0 0.96,0 0.96,-0.6 0.72,-0.96 0.48,-1.2 0.12,-1.44 l -1.2,0 -0.36,0.24 -0.12,0.24 -0.24,0.36 -0.12,0.24 0,0.72 0.12,0.24 0.24,0.36 0.12,0.12 0.36,0.24 0.24,0.12 0.72,0 L 0.12,1.32 0.48,1.08 0.72,0.96 0.96,0.6 0.96,0"
               style="fill:#000000;fill-opacity:1;fill-rule:nonzero;stroke:none"
               id="path3859"
               inkscape:connector-curvature="0" /></g><g
             id="g3861"
             transform="translate(250.799,422.72)"><path
               d="M 0,0 0.96,0"
               style="fill:#000000;fill-opacity:1;fill-rule:nonzero;stroke:none"
               id="path3863"
               inkscape:connector-curvature="0" /></g><g
             id="g3865"
             transform="translate(187.559,453.92)"><path
               d="M 0,0 -0.12,0.36 -0.24,0.6 -0.6,0.84 -0.96,0.96 -1.44,0.84 -1.92,0.36 -2.04,0 l 0.12,-0.48 0.48,-0.48 0.48,-0.12 0.36,0.12 0.36,0.24 0.12,0.24 L 0,0"
               style="fill:#000000;fill-opacity:1;fill-rule:evenodd;stroke:none"
               id="path3867"
               inkscape:connector-curvature="0" /></g><g
             id="g3869"
             transform="translate(187.079,453.68)"><path
               d="M 0,0 -0.12,0.36 0,0.36 -0.12,0.6 0,0.36 -0.36,0.6 l 0.12,0 -0.36,0.12 0.24,0 L -0.84,0.6 -0.6,0.72 -1.08,0.24 -0.96,0.36 -1.08,0 l 0,0.36 0.12,-0.48 -0.12,0.24 0.48,-0.48 -0.24,0.12 0.48,-0.12 -0.24,0 0.36,0.12 L -0.36,-0.36 0,-0.12 -0.12,-0.24 0,0 -0.12,-0.12 0,0.36 0.96,0.12 0.84,-0.36 0.84,-0.48 0.72,-0.72 0.48,-0.96 0.12,-1.2 l -0.36,-0.12 -0.36,0 -0.48,0.12 -0.24,0.12 -0.48,0.48 -0.12,0.24 -0.12,0.48 0,0.24 0.12,0.36 0.12,0.24 0.48,0.48 0.24,0.12 0.48,0.12 0.36,0 0.36,-0.12 0,-0.12 L 0.48,1.2 0.72,1.08 0.84,0.84 0.84,0.72 0.96,0.36"
               style="fill:#000000;fill-opacity:1;fill-rule:nonzero;stroke:none"
               id="path3871"
               inkscape:connector-curvature="0" /></g><g
             id="g3873"
             transform="translate(187.079,454.04)"><path
               d="M 0,0 0,-0.36 0.96,0 l 0,-0.24"
               style="fill:#000000;fill-opacity:1;fill-rule:nonzero;stroke:none"
               id="path3875"
               inkscape:connector-curvature="0" /></g><path
             d="m 271.559,422.72 0.48001,0 0,75.84 -0.48001,0 0,-75.84 z"
             style="fill:#000000;fill-opacity:1;fill-rule:nonzero;stroke:none"
             id="path3877"
             inkscape:connector-curvature="0" /><path
             d="m 271.799,498.56 24.48,0 0,0.48001 -24.48,0 0,-0.48001 z"
             style="fill:#000000;fill-opacity:1;fill-rule:nonzero;stroke:none"
             id="path3879"
             inkscape:connector-curvature="0" /><text
             transform="matrix(1,0,0,-1,307.199,507.5603)"
             style="font-variant:normal;font-weight:normal;font-stretch:normal;font-size:7.92000008px;font-family:Arial;-inkscape-font-specification:Arial;writing-mode:lr-tb;fill:#000000;fill-opacity:1;fill-rule:nonzero;stroke:none"
             id="text3881"><tspan
               x="0"
               y="0"
               id="tspan3883">B</tspan></text>
<path
             d="m 244.439,513.08 0.24001,0 0,0.47998 -0.24001,0 0,-0.47998 z"
             style="fill:#ffffff;fill-opacity:1;fill-rule:nonzero;stroke:none"
             id="path3885"
             inkscape:connector-curvature="0" /><g
             id="g3887"
             transform="translate(244.679,513.56)"><path
               d="M 0,0 1.92,0 2.16,-0.36 1.68,-0.24 3,3.84 3.24,4.56 3.48,3.84 l 3.12,-8.4 0,-0.12 -0.48,0.12 2.76,9 0.24,0.72 3.24,-9.72 0,-0.12 -0.48,0.12 2.88,8.76 0.24,0.72 0.24,-0.72 2.88,-8.76 0,-0.12 -0.24,-0.72 -0.24,0.72 -2.88,8.76 0.48,0.12 0,-0.12 -2.88,-8.76 -0.24,-0.72 -3.24,9.72 0.48,0.12 0,-0.12 -2.76,-9 L 6.36,-5.4 6.12,-4.68 3,3.72 l 0.48,0.12 0,-0.12 -1.32,-4.08 0,-0.12 -2.16,0"
               style="fill:#ffffff;fill-opacity:1;fill-rule:nonzero;stroke:none"
               id="path3889"
               inkscape:connector-curvature="0" /></g><g
             id="g3891"
             transform="translate(262.319,509)"><path
               d="m 0,0 1.32,4.32 0.12,0.24 0.12,0 L 1.8,4.2 0.48,-0.12"
               style="fill:#ffffff;fill-opacity:1;fill-rule:nonzero;stroke:none"
               id="path3893"
               inkscape:connector-curvature="0" /></g><path
             d="m 263.879,513.08 2.88,0 0,0.47998 -2.88,0 0,-0.47998 z"
             style="fill:#ffffff;fill-opacity:1;fill-rule:nonzero;stroke:none"
             id="path3895"
             inkscape:connector-curvature="0" /><path
             d="m 243.359,512.96 24,0 0,0.47998 -24,0 0,-0.47998 z"
             style="fill:#ffffff;fill-opacity:1;fill-rule:nonzero;stroke:none"
             id="path3897"
             inkscape:connector-curvature="0" /><g
             id="g3899"
             transform="translate(246.719,513.32)"><path
               d="m 0,0 1.32,4.32 3,-8.64 2.76,8.64 3,-8.64 3,8.64 2.76,-8.64 1.44,4.08"
               style="fill:#ffffff;fill-opacity:1;fill-rule:evenodd;stroke:none"
               id="path3901"
               inkscape:connector-curvature="0" /></g><g
             id="g3903"
             transform="translate(246.479,513.32)"><path
               d="m 0,0 0,-0.24 0.48,-0.12 0,0.24"
               style="fill:#000000;fill-opacity:1;fill-rule:nonzero;stroke:none"
               id="path3905"
               inkscape:connector-curvature="0" /></g><g
             id="g3907"
             transform="translate(246.479,513.32)"><path
               d="m 0,0 1.32,4.32 0.24,0.72 0.24,-0.72 3,-8.64 0,-0.12 -0.48,0.12 2.76,8.64 0.24,0.72 0.24,-0.72 3,-8.64 0,-0.12 -0.48,0.12 3,8.64 0.24,0.72 0.24,-0.72 0,-0.12 -3,-8.64 -0.24,-0.72 -0.24,0.72 -3,8.64 0.48,0.12 0,-0.12 L 4.8,-4.44 4.56,-5.16 4.32,-4.44 1.32,4.2 1.8,4.32 1.8,4.2 0.48,-0.12"
               style="fill:#000000;fill-opacity:1;fill-rule:nonzero;stroke:none"
               id="path3909"
               inkscape:connector-curvature="0" /></g><g
             id="g3911"
             transform="translate(260.039,517.64)"><path
               d="m 0,0 2.76,-8.64 0,-0.12 -0.24,-0.72 -0.24,0.72 -2.76,8.64"
               style="fill:#000000;fill-opacity:1;fill-rule:nonzero;stroke:none"
               id="path3913"
               inkscape:connector-curvature="0" /></g><g
             id="g3915"
             transform="translate(263.759,513.08)"><path
               d="m 0,0 0,0.24 0.48,-0.12 0,-0.24"
               style="fill:#000000;fill-opacity:1;fill-rule:nonzero;stroke:none"
               id="path3917"
               inkscape:connector-curvature="0" /></g><g
             id="g3919"
             transform="translate(262.319,509)"><path
               d="M 0,0 0.48,-0.12 1.92,3.96 1.44,4.08"
               style="fill:#000000;fill-opacity:1;fill-rule:nonzero;stroke:none"
               id="path3921"
               inkscape:connector-curvature="0" /></g><g
             id="g3923"
             transform="translate(243.959,513.2)"><path
               d="M 0,0 -0.24,0.24 -0.48,0 -0.24,-0.24 0,0"
               style="fill:#000000;fill-opacity:1;fill-rule:nonzero;stroke:none"
               id="path3925"
               inkscape:connector-curvature="0" /></g><g
             id="g3927"
             transform="translate(246.959,513.2)"><path
               d="M 0,0 -0.24,0.24 -0.48,0 -0.24,-0.24 0,0"
               style="fill:#000000;fill-opacity:1;fill-rule:nonzero;stroke:none"
               id="path3929"
               inkscape:connector-curvature="0" /></g><path
             d="m 243.719,512.96 3,0 0,0.47998 -3,0 0,-0.47998 z"
             style="fill:#000000;fill-opacity:1;fill-rule:nonzero;stroke:none"
             id="path3931"
             inkscape:connector-curvature="0" /><g
             id="g3933"
             transform="translate(264.359,513.2)"><path
               d="M 0,0 -0.24,0.24 -0.48,0 -0.24,-0.24 0,0"
               style="fill:#000000;fill-opacity:1;fill-rule:nonzero;stroke:none"
               id="path3935"
               inkscape:connector-curvature="0" /></g><g
             id="g3937"
             transform="translate(267.359,513.2)"><path
               d="M 0,0 -0.24,0.24 -0.48,0 -0.24,-0.24 0,0"
               style="fill:#000000;fill-opacity:1;fill-rule:nonzero;stroke:none"
               id="path3939"
               inkscape:connector-curvature="0" /></g><path
             d="m 264.119,512.96 3,0 0,0.47998 -3,0 0,-0.47998 z"
             style="fill:#000000;fill-opacity:1;fill-rule:nonzero;stroke:none"
             id="path3941"
             inkscape:connector-curvature="0" /><path
             d="m 186.359,512.96 60.6,0 0,0.47998 -60.6,0 0,-0.47998 z"
             style="fill:#000000;fill-opacity:1;fill-rule:nonzero;stroke:none"
             id="path3943"
             inkscape:connector-curvature="0" /><path
             d="m 279.599,512.6 0.48001,0 0,74.16 -0.48001,0 0,-74.16 z"
             style="fill:#000000;fill-opacity:1;fill-rule:nonzero;stroke:none"
             id="path3945"
             inkscape:connector-curvature="0" /><path
             d="m 355.799,506.12 0.47998,0 0,80.76 -0.47998,0 0,-80.76 z"
             style="fill:#000000;fill-opacity:1;fill-rule:nonzero;stroke:none"
             id="path3947"
             inkscape:connector-curvature="0" /><path
             d="m 305.519,548.6 0.23999,0 0,0.47998 -0.23999,0 0,-0.47998 z"
             style="fill:#ffffff;fill-opacity:1;fill-rule:nonzero;stroke:none"
             id="path3949"
             inkscape:connector-curvature="0" /><g
             id="g3951"
             transform="translate(305.759,549.08)"><path
               d="M 0,0 1.92,0 2.16,-0.36 1.68,-0.24 3,3.84 3.24,4.56 3.48,3.84 l 3,-8.4 0,-0.12 L 6,-4.56 8.76,4.32 9,5.04 l 3.24,-9.72 0,-0.12 -0.48,0.12 3,8.88 0.24,0.72 0.24,-0.72 2.88,-8.88 0,-0.12 -0.24,-0.72 -0.24,0.72 -2.88,8.88 0.48,0.12 0,-0.12 -3,-8.88 L 12,-5.52 8.76,4.2 9.24,4.32 9.24,4.2 6.48,-4.68 6.24,-5.4 6,-4.68 l -3,8.4 0.48,0.12 0,-0.12 -1.32,-4.08 0,-0.12 -2.16,0"
               style="fill:#ffffff;fill-opacity:1;fill-rule:nonzero;stroke:none"
               id="path3953"
               inkscape:connector-curvature="0" /></g><g
             id="g3955"
             transform="translate(323.399,544.4)"><path
               d="m 0,0 1.32,4.44 0.12,0.24 0.12,0 L 1.8,4.32 0.48,-0.12"
               style="fill:#ffffff;fill-opacity:1;fill-rule:nonzero;stroke:none"
               id="path3957"
               inkscape:connector-curvature="0" /></g><path
             d="m 324.959,548.6 2.76,0 0,0.47998 -2.76,0 0,-0.47998 z"
             style="fill:#ffffff;fill-opacity:1;fill-rule:nonzero;stroke:none"
             id="path3959"
             inkscape:connector-curvature="0" /><path
             d="m 304.319,548.48 24.12,0 0,0.47998 -24.12,0 0,-0.47998 z"
             style="fill:#ffffff;fill-opacity:1;fill-rule:nonzero;stroke:none"
             id="path3961"
             inkscape:connector-curvature="0" /><g
             id="g3963"
             transform="translate(307.679,548.72)"><path
               d="m 0,0 1.32,4.44 3,-8.64 2.76,8.64 3,-8.64 3,8.64 2.76,-8.64 1.44,4.08"
               style="fill:#ffffff;fill-opacity:1;fill-rule:evenodd;stroke:none"
               id="path3965"
               inkscape:connector-curvature="0" /></g><g
             id="g3967"
             transform="translate(307.439,548.72)"><path
               d="m 0,0 0,-0.24 0.48,-0.12 0,0.24"
               style="fill:#000000;fill-opacity:1;fill-rule:nonzero;stroke:none"
               id="path3969"
               inkscape:connector-curvature="0" /></g><g
             id="g3971"
             transform="translate(307.439,548.72)"><path
               d="m 0,0 1.32,4.44 0.24,0.72 0.24,-0.72 3,-8.64 0,-0.12 -0.48,0.12 2.76,8.64 0.24,0.72 0.24,-0.72 3,-8.64 0,-0.12 -0.48,0.12 3,8.64 0.24,0.72 0.24,-0.72 0,-0.12 -3,-8.64 -0.24,-0.72 -0.24,0.72 -3,8.64 0.48,0.12 0,-0.12 -2.76,-8.64 -0.24,-0.72 -0.24,0.72 -3,8.64 0.48,0.12 0,-0.12 -1.32,-4.44"
               style="fill:#000000;fill-opacity:1;fill-rule:nonzero;stroke:none"
               id="path3973"
               inkscape:connector-curvature="0" /></g><g
             id="g3975"
             transform="translate(320.999,553.16)"><path
               d="m 0,0 2.76,-8.64 0,-0.12 -0.24,-0.72 -0.24,0.72 -2.76,8.64"
               style="fill:#000000;fill-opacity:1;fill-rule:nonzero;stroke:none"
               id="path3977"
               inkscape:connector-curvature="0" /></g><g
             id="g3979"
             transform="translate(324.719,548.6)"><path
               d="m 0,0 0,0.24 0.48,-0.12 0,-0.24"
               style="fill:#000000;fill-opacity:1;fill-rule:nonzero;stroke:none"
               id="path3981"
               inkscape:connector-curvature="0" /></g><g
             id="g3983"
             transform="translate(323.279,544.52)"><path
               d="M 0,0 0.48,-0.12 1.92,3.96 1.44,4.08"
               style="fill:#000000;fill-opacity:1;fill-rule:nonzero;stroke:none"
               id="path3985"
               inkscape:connector-curvature="0" /></g><g
             id="g3987"
             transform="translate(304.919,548.72)"><path
               d="M 0,0 -0.24,0.24 -0.48,0 -0.24,-0.24 0,0"
               style="fill:#000000;fill-opacity:1;fill-rule:nonzero;stroke:none"
               id="path3989"
               inkscape:connector-curvature="0" /></g><g
             id="g3991"
             transform="translate(307.919,548.72)"><path
               d="M 0,0 -0.24,0.24 -0.48,0 -0.24,-0.24 0,0"
               style="fill:#000000;fill-opacity:1;fill-rule:nonzero;stroke:none"
               id="path3993"
               inkscape:connector-curvature="0" /></g><path
             d="m 304.679,548.48 3,0 0,0.47998 -3,0 0,-0.47998 z"
             style="fill:#000000;fill-opacity:1;fill-rule:nonzero;stroke:none"
             id="path3995"
             inkscape:connector-curvature="0" /><g
             id="g3997"
             transform="translate(325.319,548.72)"><path
               d="M 0,0 -0.24,0.24 -0.48,0 -0.24,-0.24 0,0"
               style="fill:#000000;fill-opacity:1;fill-rule:nonzero;stroke:none"
               id="path3999"
               inkscape:connector-curvature="0" /></g><g
             id="g4001"
             transform="translate(328.319,548.72)"><path
               d="M 0,0 -0.24,0.24 -0.48,0 -0.24,-0.24 0,0"
               style="fill:#000000;fill-opacity:1;fill-rule:nonzero;stroke:none"
               id="path4003"
               inkscape:connector-curvature="0" /></g><path
             d="m 325.079,548.48 3,0 0,0.47998 -3,0 0,-0.47998 z"
             style="fill:#000000;fill-opacity:1;fill-rule:nonzero;stroke:none"
             id="path4005"
             inkscape:connector-curvature="0" /><path
             d="m 327.239,548.6 29.28,0 0,0.47998 -29.28,0 0,-0.47998 z"
             style="fill:#000000;fill-opacity:1;fill-rule:nonzero;stroke:none"
             id="path4007"
             inkscape:connector-curvature="0" /><path
             d="m 279.719,548.48 27.12,0 0,0.47998 -27.12,0 0,-0.47998 z"
             style="fill:#000000;fill-opacity:1;fill-rule:nonzero;stroke:none"
             id="path4009"
             inkscape:connector-curvature="0" /><g
             id="g4011"
             transform="translate(280.799,513.08)"><path
               d="M 0,0 -0.12,0.48 -0.6,0.96 -1.08,1.08 -1.44,0.96 -1.8,0.72 -1.92,0.48 -2.04,0 l 0.24,-0.72 0.72,-0.24 0.48,0.12 0.24,0.12 0.24,0.36 L 0,0"
               style="fill:#000000;fill-opacity:1;fill-rule:evenodd;stroke:none"
               id="path4013"
               inkscape:connector-curvature="0" /></g><g
             id="g4015"
             transform="translate(280.319,512.96)"><path
               d="M 0,0 -0.12,0.48 0,0.24 -0.48,0.72 -0.24,0.6 l -0.48,0.12 0.36,0 -0.36,-0.12 -0.36,-0.24 0.24,0.24 -0.12,-0.24 0,0.12 -0.12,-0.48 0,0.24 0.24,-0.72 -0.24,0.36 0.72,-0.24 -0.36,0 0.48,0.12 -0.12,-0.12 0.24,0.12 L -0.24,-0.36 0,0 -0.12,-0.12 0,0.24 0.96,-0.12 0.84,-0.48 0.6,-0.84 0.36,-1.08 0.12,-1.2 0,-1.2 l -0.48,-0.12 -0.24,0 -0.72,0.24 -0.36,0.24 -0.12,0.36 -0.12,0.36 0,0.36 0.12,0.48 0.12,0.12 0.12,0.24 0.12,0.12 0.36,0.24 0.12,0.12 0.36,0.12 0.24,0 L 0,1.56 0.24,1.44 0.72,0.96 0.84,0.72 0.96,0.24"
               style="fill:#000000;fill-opacity:1;fill-rule:nonzero;stroke:none"
               id="path4017"
               inkscape:connector-curvature="0" /></g><g
             id="g4019"
             transform="translate(280.319,513.2)"><path
               d="M 0,0 0,-0.24 0.96,0 l 0,-0.36"
               style="fill:#000000;fill-opacity:1;fill-rule:nonzero;stroke:none"
               id="path4021"
               inkscape:connector-curvature="0" /></g><g
             id="g4023"
             transform="translate(357.239,506)"><path
               d="M 0,0 0,0.36 -0.24,0.72 -0.6,0.96 -1.32,0.96 -1.68,0.72 -1.92,0.36 -2.04,0 l 0.12,-0.36 0.24,-0.36 0.36,-0.24 0.72,0 0.36,0.24 L 0,-0.36 0,0"
               style="fill:#000000;fill-opacity:1;fill-rule:evenodd;stroke:none"
               id="path4025"
               inkscape:connector-curvature="0" /></g><g
             id="g4027"
             transform="translate(356.759,506)"><path
               d="M 0,0 0,0.36 0.12,0.12 -0.12,0.48 0,0.24 l -0.36,0.24 0.24,0 -0.72,0 0.24,0 -0.36,-0.24 0.24,0.24 -0.24,-0.36 -0.12,-0.36 0,0.36 0.12,-0.36 0,0.12 0.24,-0.36 -0.24,0.12 0.36,-0.24 -0.24,0.12 0.72,0 L -0.36,-0.6 0,-0.36 -0.12,-0.48 0.12,-0.12 0,-0.36 0,0 0.96,0 0.96,-0.6 0.72,-0.96 0.48,-1.2 0.12,-1.44 l -1.2,0 -0.36,0.24 -0.12,0.24 -0.24,0.36 -0.12,0 -0.12,0.36 0,0.36 0.12,0.36 0.12,0.12 0.24,0.36 0.12,0.12 0.36,0.24 0.24,0.12 0.72,0 L 0.12,1.32 0.48,1.08 0.72,0.96 0.96,0.6 0.96,0"
               style="fill:#000000;fill-opacity:1;fill-rule:nonzero;stroke:none"
               id="path4029"
               inkscape:connector-curvature="0" /></g><g
             id="g4031"
             transform="translate(356.759,506)"><path
               d="M 0,0 0.96,0"
               style="fill:#000000;fill-opacity:1;fill-rule:nonzero;stroke:none"
               id="path4033"
               inkscape:connector-curvature="0" /></g><g
             id="g4035"
             transform="translate(357.119,548.72)"><path
               d="M 0,0 -0.12,0.36 -0.36,0.72 -1.08,0.96 -1.8,0.72 -2.04,0 l 0.12,-0.48 0.12,-0.24 0.36,-0.24 0.36,-0.12 0.36,0.12 0.36,0.24 0.24,0.24 L 0,0"
               style="fill:#000000;fill-opacity:1;fill-rule:evenodd;stroke:none"
               id="path4037"
               inkscape:connector-curvature="0" /></g><g
             id="g4039"
             transform="translate(356.639,548.48)"><path
               d="M 0,0 -0.12,0.36 0,0.36 -0.24,0.72 0,0.48 -0.72,0.72 -0.36,0.72 -1.08,0.48 -0.84,0.72 -0.96,0.36 -1.08,0 l 0,0.36 0.12,-0.48 0,0.12 0.12,-0.24 -0.24,0.12 0.36,-0.24 0,0.12 0.36,-0.12 -0.36,0 0.36,0.12 -0.12,-0.12 0.36,0.24 -0.12,0 L 0,0.12 -0.12,-0.12 0,0.36 0.96,0.12 0.84,-0.36 0.72,-0.6 0.36,-0.96 0,-1.2 l -0.36,-0.12 -0.36,0 -0.36,0.12 -0.12,0 -0.36,0.24 -0.24,0.48 -0.12,0.12 -0.12,0.48 0,0.24 0.12,0.36 0.12,0.36 0.36,0.36 0.72,0.24 0.36,0 L 0.36,1.44 0.6,1.2 0.84,0.84 0.84,0.72 0.96,0.36"
               style="fill:#000000;fill-opacity:1;fill-rule:nonzero;stroke:none"
               id="path4041"
               inkscape:connector-curvature="0" /></g><g
             id="g4043"
             transform="translate(356.639,548.84)"><path
               d="M 0,0 0,-0.36 0.96,0 l 0,-0.24"
               style="fill:#000000;fill-opacity:1;fill-rule:nonzero;stroke:none"
               id="path4045"
               inkscape:connector-curvature="0" /></g><g
             id="g4047"
             transform="translate(280.799,548.84)"><path
               d="M 0,0 -0.12,0.36 -0.36,0.72 -0.6,0.96 -1.08,1.08 -1.44,0.96 -1.8,0.72 -2.04,0 l 0.12,-0.36 0.12,-0.36 0.72,-0.24 0.48,0.12 0.24,0.12 0.24,0.36 L 0,0"
               style="fill:#000000;fill-opacity:1;fill-rule:evenodd;stroke:none"
               id="path4049"
               inkscape:connector-curvature="0" /></g><g
             id="g4051"
             transform="translate(280.319,548.6)"><path
               d="m 0,0 -0.12,0.36 0.12,0 -0.24,0.36 0,-0.12 -0.24,0.24 0.24,-0.12 -0.48,0.12 0.36,0 L -0.72,0.72 -1.08,0.48 -0.84,0.72 -1.08,0 -1.08,0.36 -0.96,0 -0.84,-0.36 -1.08,0 l 0.72,-0.24 -0.36,0 0.48,0.12 -0.12,-0.12 0.24,0.12 L -0.24,-0.24 0,0.12 -0.12,0 0,0.36 0.96,0 0.84,-0.36 0.6,-0.72 0.36,-0.96 0.12,-1.08 0,-1.08 -0.48,-1.2 l -0.24,0 -0.72,0.24 -0.36,0.24 -0.24,0.72 0,0.36 0.12,0.36 0.12,0.36 0.24,0.24 0.36,0.24 0.12,0.12 0.36,0.12 0.24,0 L 0,1.68 0.24,1.56 0.6,1.2 0.84,0.84 0.84,0.72 0.96,0.36"
               style="fill:#000000;fill-opacity:1;fill-rule:nonzero;stroke:none"
               id="path4053"
               inkscape:connector-curvature="0" /></g><g
             id="g4055"
             transform="translate(280.319,548.96)"><path
               d="M 0,0 0,-0.36 0.96,0 l 0,-0.36"
               style="fill:#000000;fill-opacity:1;fill-rule:nonzero;stroke:none"
               id="path4057"
               inkscape:connector-curvature="0" /></g><path
             d="m 398.399,505.76 0.23999,0 0,0.48001 -0.23999,0 0,-0.48001 z"
             style="fill:#ffffff;fill-opacity:1;fill-rule:nonzero;stroke:none"
             id="path4059"
             inkscape:connector-curvature="0" /><g
             id="g4061"
             transform="translate(398.639,506.24)"><path
               d="M 0,0 1.92,0 2.16,-0.36 1.68,-0.24 3,3.96 3.24,4.68 3.48,3.96 l 3,-8.4 0,-0.12 L 6,-4.44 8.76,4.44 9,5.16 l 3.24,-9.72 0,-0.12 -0.48,0.12 3,8.88 0.24,0.72 0.24,-0.72 2.88,-8.88 0,-0.12 -0.24,-0.72 -0.24,0.72 -2.88,8.88 0.48,0.12 0,-0.12 -3,-8.88 L 12,-5.4 8.76,4.32 9.24,4.44 9.24,4.32 6.48,-4.56 6.24,-5.28 6,-4.56 l -3,8.4 0.48,0.12 0,-0.12 -1.32,-4.2 0,-0.12 -2.16,0"
               style="fill:#ffffff;fill-opacity:1;fill-rule:nonzero;stroke:none"
               id="path4063"
               inkscape:connector-curvature="0" /></g><g
             id="g4065"
             transform="translate(416.279,501.68)"><path
               d="m 0,0 1.32,4.32 0.12,0.24 0.12,0 L 1.8,4.2 0.48,-0.12"
               style="fill:#ffffff;fill-opacity:1;fill-rule:nonzero;stroke:none"
               id="path4067"
               inkscape:connector-curvature="0" /></g><path
             d="m 417.839,505.76 2.76,0 0,0.48001 -2.76,0 0,-0.48001 z"
             style="fill:#ffffff;fill-opacity:1;fill-rule:nonzero;stroke:none"
             id="path4069"
             inkscape:connector-curvature="0" /><path
             d="m 397.199,505.64 0.23999,0 0,0.48001 -0.23999,0 0,-0.48001 z"
             style="fill:#ffffff;fill-opacity:1;fill-rule:nonzero;stroke:none"
             id="path4071"
             inkscape:connector-curvature="0" /><path
             d="m 397.439,505.64 23.88,0 0,0.48001 -23.88,0 0,-0.48001 z"
             style="fill:#ffffff;fill-opacity:1;fill-rule:nonzero;stroke:none"
             id="path4073"
             inkscape:connector-curvature="0" /><g
             id="g4075"
             transform="translate(400.559,506)"><path
               d="m 0,0 1.32,4.44 3,-8.76 2.76,8.76 3,-8.76 3,8.76 2.76,-8.76 1.44,4.2"
               style="fill:#ffffff;fill-opacity:1;fill-rule:evenodd;stroke:none"
               id="path4077"
               inkscape:connector-curvature="0" /></g><g
             id="g4079"
             transform="translate(400.319,506)"><path
               d="m 0,0 0,-0.24 0.48,-0.12 0,0.24"
               style="fill:#000000;fill-opacity:1;fill-rule:nonzero;stroke:none"
               id="path4081"
               inkscape:connector-curvature="0" /></g><g
             id="g4083"
             transform="translate(400.319,506)"><path
               d="m 0,0 1.32,4.44 0.24,0.72 0.24,-0.72 3,-8.76 0,-0.12 -0.48,0.12 2.76,8.76 0.24,0.72 0.24,-0.72 3,-8.76 0,-0.12 -0.48,0.12 3,8.76 0.24,0.72 0.24,-0.72 0,-0.12 -3,-8.76 -0.24,-0.72 -0.24,0.72 -3,8.76 0.48,0.12 0,-0.12 -2.76,-8.76 -0.24,-0.72 -0.24,0.72 -3,8.76 0.48,0.12 0,-0.12 -1.32,-4.44"
               style="fill:#000000;fill-opacity:1;fill-rule:nonzero;stroke:none"
               id="path4085"
               inkscape:connector-curvature="0" /></g><g
             id="g4087"
             transform="translate(413.879,510.44)"><path
               d="m 0,0 2.76,-8.76 0,-0.12 -0.24,-0.72 -0.24,0.72 -2.76,8.76"
               style="fill:#000000;fill-opacity:1;fill-rule:nonzero;stroke:none"
               id="path4089"
               inkscape:connector-curvature="0" /></g><g
             id="g4091"
             transform="translate(417.599,505.88)"><path
               d="m 0,0 0,0.24 0.48,-0.12 0,-0.24"
               style="fill:#000000;fill-opacity:1;fill-rule:nonzero;stroke:none"
               id="path4093"
               inkscape:connector-curvature="0" /></g><g
             id="g4095"
             transform="translate(416.159,501.68)"><path
               d="M 0,0 0.48,-0.12 1.92,4.08 1.44,4.2"
               style="fill:#000000;fill-opacity:1;fill-rule:nonzero;stroke:none"
               id="path4097"
               inkscape:connector-curvature="0" /></g><g
             id="g4099"
             transform="translate(397.799,506)"><path
               d="M 0,0 -0.12,0.12 -0.24,0.24 -0.48,0 -0.24,-0.24 0,0"
               style="fill:#000000;fill-opacity:1;fill-rule:nonzero;stroke:none"
               id="path4101"
               inkscape:connector-curvature="0" /></g><g
             id="g4103"
             transform="translate(400.799,506)"><path
               d="M 0,0 -0.12,0.12 -0.24,0.24 -0.48,0 -0.24,-0.24 0,0"
               style="fill:#000000;fill-opacity:1;fill-rule:nonzero;stroke:none"
               id="path4105"
               inkscape:connector-curvature="0" /></g><path
             d="m 397.559,505.76 3,0 0,0.48001 -3,0 0,-0.48001 z"
             style="fill:#000000;fill-opacity:1;fill-rule:nonzero;stroke:none"
             id="path4107"
             inkscape:connector-curvature="0" /><path
             d="m 440.159,505.76 10.68,0 0,0.48001 -10.68,0 0,-0.48001 z"
             style="fill:#000000;fill-opacity:1;fill-rule:nonzero;stroke:none"
             id="path4109"
             inkscape:connector-curvature="0" /><g
             id="g4111"
             transform="translate(440.519,509.24)"><path
               d="m 0,0 -0.12,-0.48 10.44,-3 0.12,0 0.84,0.24 -0.84,0.24"
               style="fill:#000000;fill-opacity:1;fill-rule:nonzero;stroke:none"
               id="path4113"
               inkscape:connector-curvature="0" /></g><g
             id="g4115"
             transform="translate(450.959,505.76)"><path
               d="m 0,0 -0.12,0.48 -10.44,-3 0.12,-0.48"
               style="fill:#000000;fill-opacity:1;fill-rule:nonzero;stroke:none"
               id="path4117"
               inkscape:connector-curvature="0" /></g><path
             d="m 417.719,505.76 0.23999,0 0,0.48001 -0.23999,0 0,-0.48001 z"
             style="fill:#000000;fill-opacity:1;fill-rule:nonzero;stroke:none"
             id="path4119"
             inkscape:connector-curvature="0" /><path
             d="m 417.959,505.76 22.44,0 0,0.48001 -22.44,0 0,-0.48001 z"
             style="fill:#000000;fill-opacity:1;fill-rule:nonzero;stroke:none"
             id="path4121"
             inkscape:connector-curvature="0" /><text
             transform="matrix(1,0,0,-1,307.199,597.6803)"
             style="font-variant:normal;font-weight:normal;font-stretch:normal;font-size:7.92000008px;font-family:Arial;-inkscape-font-specification:Arial;writing-mode:lr-tb;fill:#000000;fill-opacity:1;fill-rule:nonzero;stroke:none"
             id="text4123"><tspan
               x="0 5.7562561 10.197792"
               y="0"
               sodipodi:role="line"
               id="tspan4125">C21</tspan><tspan
               x="-2.7601199 1.67904 6.1181998 10.676952 15.116112"
               y="27.119663"
               sodipodi:role="line"
               id="tspan4127">220pF</tspan><tspan
               x="3.119688 8.8759441 13.31748"
               y="40.799881"
               sodipodi:role="line"
               id="tspan4129">R13</tspan></text>
<text
             transform="matrix(1,0,0,-1,302.639,550.6403)"
             style="font-variant:normal;font-weight:normal;font-stretch:normal;font-size:6.96000004px;font-family:Arial;-inkscape-font-specification:Arial;writing-mode:lr-tb;fill:#000000;fill-opacity:1;fill-rule:nonzero;stroke:none"
             id="text4131"><tspan
               x="0 22.198919"
               y="0"
               sodipodi:role="line"
               id="tspan4133">12</tspan></text>
<text
             transform="matrix(1,0,0,-1,403.319,514.5203)"
             style="font-variant:normal;font-weight:normal;font-stretch:normal;font-size:7.92000008px;font-family:Arial;-inkscape-font-specification:Arial;writing-mode:lr-tb;fill:#000000;fill-opacity:1;fill-rule:nonzero;stroke:none"
             id="text4135"><tspan
               x="0 5.7562561 10.197792"
               y="0"
               sodipodi:role="line"
               id="tspan4137">R16</tspan></text>
<text
             transform="matrix(1,0,0,-1,395.639,508.2803)"
             style="font-variant:normal;font-weight:normal;font-stretch:normal;font-size:6.96000004px;font-family:Arial;-inkscape-font-specification:Arial;writing-mode:lr-tb;fill:#000000;fill-opacity:1;fill-rule:nonzero;stroke:none"
             id="text4139"><tspan
               x="0 22.198919"
               y="0"
               sodipodi:role="line"
               id="tspan4141">12</tspan></text>
<text
             transform="matrix(1,0,0,-1,307.439,536.1203)"
             style="font-variant:normal;font-weight:normal;font-stretch:normal;font-size:7.92000008px;font-family:Arial;-inkscape-font-specification:Arial;writing-mode:lr-tb;fill:#000000;fill-opacity:1;fill-rule:nonzero;stroke:none"
             id="text4143"><tspan
               x="0 4.4391599 8.8783197 13.31748"
               y="0"
               sodipodi:role="line"
               id="tspan4145">100K</tspan><tspan
               x="93.600143 98.039307 102.47846 106.91763"
               y="43.320023"
               sodipodi:role="line"
               id="tspan4147">100R</tspan><tspan
               x="-58.440098 -52.561081 -48.121922"
               y="14.759712"
               sodipodi:role="line"
               id="tspan4149">R12</tspan></text>
<text
             transform="matrix(1,0,0,-1,242.2791,515.1203)"
             style="font-variant:normal;font-weight:normal;font-stretch:normal;font-size:6.96000004px;font-family:Arial;-inkscape-font-specification:Arial;writing-mode:lr-tb;fill:#000000;fill-opacity:1;fill-rule:nonzero;stroke:none"
             id="text4151"><tspan
               x="0 22.198919"
               y="0"
               sodipodi:role="line"
               id="tspan4153">12</tspan></text>
<text
             transform="matrix(1,0,0,-1,251.399,500.7203)"
             style="font-variant:normal;font-weight:normal;font-stretch:normal;font-size:7.92000008px;font-family:Arial;-inkscape-font-specification:Arial;writing-mode:lr-tb;fill:#000000;fill-opacity:1;fill-rule:nonzero;stroke:none"
             id="text4155"><tspan
               x="0"
               y="0"
               id="tspan4157">1</tspan></text>
<text
             transform="matrix(1,0,0,-1,255.959,500.7203)"
             style="font-variant:normal;font-weight:normal;font-stretch:normal;font-size:6.36000013px;font-family:Arial;-inkscape-font-specification:Arial;writing-mode:lr-tb;fill:#000000;fill-opacity:1;fill-rule:nonzero;stroke:none"
             id="text4159"><tspan
               x="0"
               y="0"
               id="tspan4161">K</tspan></text>
<text
             transform="matrix(1,0,0,-1,211.079,462.4403)"
             style="font-variant:normal;font-weight:normal;font-stretch:normal;font-size:7.92000008px;font-family:Arial;-inkscape-font-specification:Arial;writing-mode:lr-tb;fill:#000000;fill-opacity:1;fill-rule:nonzero;stroke:none"
             id="text4163"><tspan
               x="0 5.7586322"
               y="0"
               sodipodi:role="line"
               id="tspan4165">R1</tspan></text>
<text
             transform="matrix(1,0,0,-1,202.919,456.3203)"
             style="font-variant:normal;font-weight:normal;font-stretch:normal;font-size:6.96000004px;font-family:Arial;-inkscape-font-specification:Arial;writing-mode:lr-tb;fill:#000000;fill-opacity:1;fill-rule:nonzero;stroke:none"
             id="text4167"><tspan
               x="0 22.198919"
               y="0"
               sodipodi:role="line"
               id="tspan4169">21</tspan></text>
<text
             transform="matrix(1,0,0,-1,205.079,441.8003)"
             style="font-variant:normal;font-weight:normal;font-stretch:normal;font-size:7.92000008px;font-family:Arial;-inkscape-font-specification:Arial;writing-mode:lr-tb;fill:#000000;fill-opacity:1;fill-rule:nonzero;stroke:none"
             id="text4171"><tspan
               x="0 4.4399519 10.194624 14.634576 19.074528"
               y="0"
               sodipodi:role="line"
               id="tspan4173">0R010</tspan><tspan
               x="6.3597598 12.118392"
               y="11.160072"
               sodipodi:role="line"
               id="tspan4175">R2</tspan></text>
<text
             transform="matrix(1,0,0,-1,203.2791,424.4003)"
             style="font-variant:normal;font-weight:normal;font-stretch:normal;font-size:6.96000004px;font-family:Arial;-inkscape-font-specification:Arial;writing-mode:lr-tb;fill:#000000;fill-opacity:1;fill-rule:nonzero;stroke:none"
             id="text4177"><tspan
               x="0 22.198919"
               y="0"
               sodipodi:role="line"
               id="tspan4179">21</tspan></text>
<text
             transform="matrix(1,0,0,-1,205.439,410.0003)"
             style="font-variant:normal;font-weight:normal;font-stretch:normal;font-size:7.92000008px;font-family:Arial;-inkscape-font-specification:Arial;writing-mode:lr-tb;fill:#000000;fill-opacity:1;fill-rule:nonzero;stroke:none"
             id="text4181"><tspan
               x="0 4.4399519 10.194624 14.634576 19.074528"
               y="0"
               sodipodi:role="line"
               id="tspan4183">0R010</tspan></text>
<text
             transform="matrix(1,0,0,-1,454.559,503.6003)"
             style="font-variant:normal;font-weight:normal;font-stretch:normal;font-size:6.96000004px;font-family:Arial;-inkscape-font-specification:Arial;writing-mode:lr-tb;fill:#000000;fill-opacity:1;fill-rule:nonzero;stroke:none"
             id="text4185"><tspan
               x="0 1.9209599 6.6008639 11.161056 16.200096 20.879999 25.559904 29.518751 31.439713"
               y="0"
               sodipodi:role="line"
               id="tspan4187">ISENSE_IN</tspan></text>
<text
             transform="matrix(1,0,0,-1,256.4391,398.4803)"
             style="font-variant:normal;font-weight:normal;font-stretch:normal;font-size:7.92000008px;font-family:Arial;-inkscape-font-specification:Arial;writing-mode:lr-tb;fill:#000000;fill-opacity:1;fill-rule:nonzero;stroke:none"
             id="text4189"><tspan
               x="0 6.221952 12.000384"
               y="0"
               sodipodi:role="line"
               id="tspan4191">GND</tspan><tspan
               x="-113.99969 -108.71942 -103.31956"
               y="-99"
               sodipodi:role="line"
               id="tspan4193">VPV</tspan></text>
<text
             transform="matrix(0,1,1,0,109.4391,448.5203)"
             style="font-variant:normal;font-weight:normal;font-stretch:normal;font-size:7.92000008px;font-family:Arial;-inkscape-font-specification:Arial;writing-mode:lr-tb;fill:#000000;fill-opacity:1;fill-rule:nonzero;stroke:none"
             id="text4195"><tspan
               x="0 3.966336 8.3761921 11.019888 16.419744 21.708719"
               y="0"
               sodipodi:role="line"
               id="tspan4197">J1-VPV</tspan></text>
<text
             transform="matrix(1,0,0,-1,128.2791,472.4003)"
             style="font-variant:normal;font-weight:normal;font-stretch:normal;font-size:6.96000004px;font-family:Arial;-inkscape-font-specification:Arial;writing-mode:lr-tb;fill:#000000;fill-opacity:1;fill-rule:nonzero;stroke:none"
             id="text4199"><tspan
               x="0"
               y="0"
               id="tspan4201">2</tspan><tspan
               x="-0.59995198"
               y="16.079687"
               id="tspan4203">1</tspan></text>
<text
             transform="matrix(1,0,0,-1,117.5991,469.0403)"
             style="font-variant:normal;font-weight:normal;font-stretch:normal;font-size:7.92000008px;font-family:Arial;-inkscape-font-specification:Arial;writing-mode:lr-tb;fill:#000000;fill-opacity:1;fill-rule:nonzero;stroke:none"
             id="text4205"><tspan
               x="0"
               y="0"
               id="tspan4207">2</tspan><tspan
               x="0.840312"
               y="17.640217"
               id="tspan4209">1</tspan></text>
</g></g></g><path
       d="m 34.56816,480.69404 774.80935,0 0,0.79627 -774.80935,0 0,-0.79627 z"
       style="fill:#000000;fill-opacity:1;fill-rule:nonzero;stroke:none"
       id="path4211"
       inkscape:connector-curvature="0" /><path
       d="m 808.5812,119.56758 0.79628,0 0,361.52461 -0.79628,0 0,-361.52461 z"
       style="fill:#000000;fill-opacity:1;fill-rule:nonzero;stroke:none"
       id="path4213"
       inkscape:connector-curvature="0" /><path
       d="m 34.170005,119.56758 774.809355,0 0,0.79632 -774.809355,0 0,-0.79632 z"
       style="fill:#000000;fill-opacity:1;fill-rule:nonzero;stroke:none"
       id="path4215"
       inkscape:connector-curvature="0" /><path
       d="m 34.170005,119.96573 0.79631,0 0,361.52462 -0.79631,0 0,-361.52462 z"
       style="fill:#000000;fill-opacity:1;fill-rule:nonzero;stroke:none"
       id="path4217"
       inkscape:connector-curvature="0" /></g></svg>