___awdiv@counter 74 0 COMMON
_pi 28 0 BANK0
_pp 2A 0 BANK0
_RA3 63 0 ABS
_RC5 75 0 ABS
__S0 8009 0 ABS
__S1 7E 0 ABS
?_Init_Registers 70 0 COMMON
__Hintentry 1 0 CODE
__Lintentry 1 0 CODE
_pid 683 0 CODE
__end_of___awdiv 5E1 0 CODE
_state_counter 2C 0 BANK0
__end_of_Init_Registers 5A1 0 CODE
??_read_ADC 70 0 COMMON
_T0IF 5A 0 ABS
_WPUA 20C 0 ABS
?_pid 78 0 COMMON
_iflat_db 20 0 BANK0
_iref 26 0 BANK0
_vref 30 0 BANK0
_main 62D 0 CODE
_imin 22 0 BANK0
_temp 35 0 BANK0
btemp 7E 0 ABS
_exit 1 0 CODE
_lbut 40 0 BANK0
start 1 0 CODE
_iout 24 0 BANK0
_vout 2E 0 BANK0
_TRISA 8C 0 ABS
_TRISC 8E 0 ABS
_PORTA C 0 ABS
reset_vec 0 0 CODE
_PORTC E 0 ABS
_T2CON 1C 0 ABS
wtemp0 7E 0 ABS
__size_of_Init_State_Machine 0 0 ABS
__size_of_Battery_State_Machine 0 0 ABS
__Hconfig 8009 0 CONFIG
__Lconfig 8007 0 CONFIG
__size_of_Init_Registers 0 0 ABS
__end_of_led_blink 4E6 0 CODE
__Hbigram 0 0 ABS
__Lbigram 0 0 ABS
??_pid 7C 0 COMMON
clear_ram 4B4 0 CODE
_cmode 7D 0 COMMON
pid@er 43 0 BANK0
__Hram 0 0 ABS
__Lram 0 0 ABS
?_main 70 0 COMMON
_cc_cv 3F 0 BANK0
__Hfunctab 0 0 CODE
__Lfunctab 0 0 CODE
_ADCON0 9D 0 ABS
_TRISA4 464 0 ABS
_ADCON1 9E 0 ABS
_OPTION_REG 95 0 ABS
__Hcommon 0 0 ABS
__Lcommon 0 0 ABS
__Heeprom_data 0 0 EEDATA
__Leeprom_data 0 0 EEDATA
_Delay_ms 4C4 0 CODE
_ANSELA 18C 0 ABS
_ANSELC 18E 0 ABS
?___awdiv 70 0 COMMON
__size_of_set_NCO 0 0 ABS
??_led_blink 70 0 COMMON
_ADRESH 9C 0 ABS
_APFCON 11D 0 ABS
_OSCCON 99 0 ABS
__Habs1 0 0 ABS
__Labs1 0 0 ABS
_ADRESL 9B 0 ABS
_FVRCON 117 0 ABS
__Hsfr0 0 0 ABS
__Lsfr0 0 0 ABS
__Hsfr1 0 0 ABS
__Lsfr1 0 0 ABS
__Hsfr2 0 0 ABS
__Lsfr2 0 0 ABS
__Hsfr3 0 0 ABS
__Lsfr3 0 0 ABS
__Hsfr4 0 0 ABS
__Lsfr4 0 0 ABS
__Hsfr5 0 0 ABS
__Lsfr5 0 0 ABS
__Hsfr6 0 0 ABS
__Lsfr6 0 0 ABS
__Hsfr7 0 0 ABS
__Lsfr7 0 0 ABS
__Hsfr8 0 0 ABS
__Lsfr8 0 0 ABS
__Hsfr9 0 0 ABS
__Lsfr9 0 0 ABS
__ptext260 525 0 CODE
__ptext261 72E 0 CODE
_led_state 34 0 BANK0
__ptext262 5A1 0 CODE
__Hcode 0 0 ABS
__Lcode 0 0 ABS
_second 3A 0 BANK0
__ptext263 4D0 0 CODE
??_main 7C 0 COMMON
__HcstackBANK0 0 0 ABS
__LcstackBANK0 0 0 ABS
__pcstackBANK0 41 0 BANK0
__ptext264 500 0 CODE
_ad_res 36 0 BANK0
__Hinit 1 0 CODE
__Linit 1 0 CODE
__end_of_main 683 0 CODE
__end_of_Battery_State_Machine 7EC 0 CODE
_led_blink 4D0 0 CODE
__ptext265 4C4 0 CODE
_warmup 3C 0 BANK0
__Htext 0 0 ABS
__Ltext 0 0 ABS
__ptext266 574 0 CODE
__size_of_Initialize_Hardware 0 0 ABS
end_of_initialization 4C2 0 CODE
__ptext267 54B 0 CODE
___awdiv@sign 75 0 COMMON
__ptext258 5E1 0 CODE
__HnvBANK0 0 0 ABS
__LnvBANK0 0 0 ABS
__ptext268 4E6 0 CODE
__pnvBANK0 36 0 BANK0
__Hsfr10 0 0 ABS
__ptext259 683 0 CODE
__Lsfr10 0 0 ABS
__Hsfr20 0 0 ABS
__Lsfr20 0 0 ABS
__Hsfr30 0 0 ABS
__Hsfr11 0 0 ABS
__Lsfr30 0 0 ABS
__Lsfr11 0 0 ABS
__Hsfr21 0 0 ABS
__Lsfr21 0 0 ABS
__Hsfr31 0 0 ABS
__Hsfr12 0 0 ABS
__ptext269 0 0 CODE
__Lsfr31 0 0 ABS
__Lsfr12 0 0 ABS
__Hsfr22 0 0 ABS
__Lsfr22 0 0 ABS
__Hsfr13 0 0 ABS
__Lsfr13 0 0 ABS
__Hsfr23 0 0 ABS
__Lsfr23 0 0 ABS
__Hsfr14 0 0 ABS
__Lsfr14 0 0 ABS
__Hsfr24 0 0 ABS
__Lsfr24 0 0 ABS
__Hsfr15 0 0 ABS
__Lsfr15 0 0 ABS
__Hsfr25 0 0 ABS
__Lsfr25 0 0 ABS
__Hsfr16 0 0 ABS
__Lsfr16 0 0 ABS
__Hsfr26 0 0 ABS
__Lsfr26 0 0 ABS
__Hsfr17 0 0 ABS
__Lsfr17 0 0 ABS
__Hsfr27 0 0 ABS
__Lsfr27 0 0 ABS
__Hsfr18 0 0 ABS
__Lsfr18 0 0 ABS
__Hsfr28 0 0 ABS
__Lsfr28 0 0 ABS
__Hsfr19 0 0 ABS
__Lsfr19 0 0 ABS
__Hsfr29 0 0 ABS
__Lsfr29 0 0 ABS
?_Delay_ms 70 0 COMMON
__Hstrings 0 0 ABS
__Lstrings 0 0 ABS
_battery_state 7C 0 COMMON
??___awdiv 74 0 COMMON
_NCO1CLK 49F 0 ABS
_increment 38 0 BANK0
_NCO1CON 49E 0 ABS
_cc_cv_mode 500 0 CODE
__Hbank0 0 0 ABS
__Lbank0 0 0 ABS
__Hbank1 0 0 ABS
__Lbank1 0 0 ABS
__Hbank2 0 0 BANK2
__Lbank2 0 0 BANK2
__Hbank3 0 0 BANK3
__Lbank3 0 0 BANK3
__Hbank4 0 0 BANK4
__Lbank4 0 0 BANK4
__Hbank5 0 0 BANK5
_set_NCO 54B 0 CODE
__Lbank5 0 0 BANK5
??_Initialize_Hardware 70 0 COMMON
__Hpowerup 0 0 CODE
__Lpowerup 0 0 CODE
__Hbank6 0 0 BANK6
__Lbank6 0 0 BANK6
__Hbank7 0 0 BANK7
__Lbank7 0 0 BANK7
__Hbank8 0 0 BANK8
__Lbank8 0 0 BANK8
__Hbank9 0 0 BANK9
__Lbank9 0 0 BANK9
__end_of_Delay_ms 4D0 0 CODE
Delay_ms@msec 70 0 COMMON
__end_of_set_NCO 574 0 CODE
__end_of_Initialize_Hardware 54B 0 CODE
__Hclrtext 0 0 ABS
__Lclrtext 0 0 ABS
_Init_State_Machine 4E6 0 CODE
_Init_Registers 574 0 CODE
?_read_ADC 70 0 COMMON
_imin_db 32 0 BANK0
pid@ipid 41 0 BANK0
__Hidloc 0 0 IDLOC
__Lidloc 0 0 IDLOC
_led_cnt 33 0 BANK0
__Hcinit 0 0 ABS
__Lcinit 0 0 ABS
_but_cnt 3E 0 BANK0
___awdiv 5A1 0 CODE
?_led_blink 70 0 COMMON
__size_of_main 0 0 ABS
_Initialize_Hardware 525 0 CODE
??_Init_State_Machine 70 0 COMMON
??_cc_cv_mode 70 0 COMMON
?_Initialize_Hardware 70 0 COMMON
__size_of_pid 0 0 ABS
__HbssBANK0 0 0 ABS
__LbssBANK0 0 0 ABS
pid@setpoint 7A 0 COMMON
__Hbank10 0 0 BANK10
__pbssBANK0 20 0 BANK0
__Lbank10 0 0 BANK10
__Hpa_nodes 0 0 ABS
__Lpa_nodes 0 0 ABS
__Hbank20 0 0 BANK20
__Lbank20 0 0 BANK20
__Hbank30 0 0 BANK30
__Hbank11 0 0 BANK11
__Lbank30 0 0 BANK30
__Lbank11 0 0 BANK11
__Hbank21 0 0 BANK21
__Lbank21 0 0 BANK21
__Hbank31 0 0 BANK31
__Hbank12 0 0 BANK12
__Lbank31 0 0 BANK31
__Lbank12 0 0 BANK12
__Hbank22 0 0 BANK22
__Lbank22 0 0 BANK22
__Hbank13 0 0 BANK13
__Lbank13 0 0 BANK13
__Hbank23 0 0 BANK23
__Lbank23 0 0 BANK23
??_Battery_State_Machine 70 0 COMMON
??_set_NCO 70 0 COMMON
__Hbank14 0 0 BANK14
__Lbank14 0 0 BANK14
__Hbank24 0 0 BANK24
__Lbank24 0 0 BANK24
__Hbank15 0 0 BANK15
__Lbank15 0 0 BANK15
__Hbank25 0 0 BANK25
__Lbank25 0 0 BANK25
__Hbank16 0 0 BANK16
__Lbank16 0 0 BANK16
?_Battery_State_Machine 70 0 COMMON
__size_of_cc_cv_mode 0 0 ABS
__Hbank26 0 0 BANK26
__Lbank26 0 0 BANK26
__Hbank17 0 0 BANK17
__Lbank17 0 0 BANK17
__Hbank27 0 0 BANK27
__Lbank27 0 0 BANK27
__Hbank18 0 0 BANK18
__Lbank18 0 0 BANK18
__Hbank28 0 0 BANK28
__size_of___awdiv 0 0 ABS
__Lbank28 0 0 BANK28
__end_of_read_ADC 61A 0 CODE
__Hbank19 0 0 BANK19
__Lbank19 0 0 BANK19
__Hbank29 0 0 BANK29
__Lbank29 0 0 BANK29
??_Delay_ms 72 0 COMMON
__HbssCOMMON 0 0 ABS
__LbssCOMMON 0 0 ABS
__pbssCOMMON 7C 0 COMMON
__Hend_init 3 0 CODE
__Lend_init 1 0 CODE
_read_ADC 5E1 0 CODE
_NCO1INCH 49C 0 ABS
___awdiv@divisor 70 0 COMMON
__size_of_led_blink 0 0 ABS
_NCO1INCL 49B 0 ABS
_GO_nDONE 4E9 0 ABS
__Hreset_vec 1 0 CODE
__Lreset_vec 0 0 CODE
?_cc_cv_mode 70 0 COMMON
??_Init_Registers 70 0 COMMON
_Battery_State_Machine 72E 0 CODE
__end_of_pid 72E 0 CODE
pid@feedback 78 0 COMMON
intlevel0 0 0 CODE
__end_of_cc_cv_mode 525 0 CODE
intlevel1 0 0 CODE
intlevel2 0 0 CODE
?_set_NCO 70 0 COMMON
intlevel3 0 0 CODE
intlevel4 0 0 CODE
__end_of_Init_State_Machine 500 0 CODE
intlevel5 0 0 CODE
__size_of_read_ADC 0 0 ABS
__HcstackCOMMON 0 0 ABS
__LcstackCOMMON 0 0 ABS
__pcstackCOMMON 70 0 COMMON
start_initialization 4BA 0 CODE
___awdiv@quotient 76 0 COMMON
__size_of_Delay_ms 0 0 ABS
__Hmaintext 0 0 ABS
__Lmaintext 0 0 ABS
?_Init_State_Machine 70 0 COMMON
__pmaintext 62D 0 CODE
___awdiv@dividend 72 0 COMMON
%segments
reset_vec 0 5 CODE 0
config 1000E 10011 CONFIG 1000E
cstackCOMMON 70 7D COMMON 70
bssBANK0 20 44 BANK0 20
text261 E5C FFF CODE E5C
text259 D06 E5B CODE D06
maintext C5A D05 CODE C5A
text258 BC2 C59 CODE BC2
text262 B42 BC1 CODE B42
text266 AE8 B41 CODE AE8
text267 A96 AE7 CODE A96
text260 A4A A95 CODE A4A
text264 A00 A49 CODE A00
text268 9CC 9FF CODE 9CC
text263 9A0 9CB CODE 9A0
text265 988 99F CODE 988
cinit 974 987 CODE 974
clrtext 968 973 CODE 968
%locals
startup.obj
startup.as
73 0 0 CODE
81 1 0 CODE
83 2 0 CODE
zeta-charger.obj
C:\_mihnea\_work\_SVN\HP CC_CV Charger Zeta\Firmware\zeta-battery-charger\main.c
49 8007 0 CONFIG
50 8008 0 CONFIG
zeta-charger.as
243 4BA 0 CODE
238 4BB 0 CODE
239 4BC 0 CODE
244 4BD 0 CODE
245 4BE 0 CODE
246 4BF 0 CODE
247 4C0 0 CODE
248 4C1 0 CODE
255 4C2 0 CODE
256 4C3 0 CODE
228 4B4 0 CODE
230 4B5 0 CODE
231 4B6 0 CODE
232 4B7 0 CODE
233 4B8 0 CODE
234 4B9 0 CODE
C:\_mihnea\_work\_SVN\HP CC_CV Charger Zeta\Firmware\zeta-battery-charger\main.c
55 62D 0 CODE
57 62E 0 CODE
59 62F 0 CODE
63 634 0 CODE
66 636 0 CODE
67 637 0 CODE
68 63B 0 CODE
70 643 0 CODE
72 644 0 CODE
75 648 0 CODE
77 649 0 CODE
78 654 0 CODE
81 65D 0 CODE
83 661 0 CODE
85 663 0 CODE
87 66B 0 CODE
90 670 0 CODE
89 671 0 CODE
90 672 0 CODE
93 673 0 CODE
95 678 0 CODE
97 679 0 CODE
99 67D 0 CODE
101 681 0 CODE
105 683 0 CODE
C:\_mihnea\_work\_SVN\HP CC_CV Charger Zeta\Firmware\zeta-battery-charger\Hardware.c
210 5E1 0 CODE
211 5E4 0 CODE
212 5E8 0 CODE
214 5EB 0 CODE
216 5EC 0 CODE
217 5F0 0 CODE
214 5F2 0 CODE
220 5F4 0 CODE
222 5F8 0 CODE
223 5FB 0 CODE
224 5FF 0 CODE
226 602 0 CODE
228 603 0 CODE
229 607 0 CODE
226 609 0 CODE
232 60B 0 CODE
234 60F 0 CODE
235 612 0 CODE
236 616 0 CODE
238 619 0 CODE
168 683 0 CODE
170 68B 0 CODE
171 69B 0 CODE
173 6AC 0 CODE
175 6B1 0 CODE
178 6B5 0 CODE
179 6B9 0 CODE
180 6C9 0 CODE
182 6DA 0 CODE
183 6DF 0 CODE
185 6EB 0 CODE
186 6FB 0 CODE
188 70C 0 CODE
189 711 0 CODE
191 712 0 CODE
192 716 0 CODE
193 72B 0 CODE
196 72D 0 CODE
197 72E 0 CODE
73 525 0 CODE
75 529 0 CODE
79 52A 0 CODE
77 52B 0 CODE
79 52C 0 CODE
81 52E 0 CODE
84 532 0 CODE
83 533 0 CODE
84 534 0 CODE
86 535 0 CODE
84 536 0 CODE
86 537 0 CODE
87 538 0 CODE
88 53A 0 CODE
90 53E 0 CODE
92 53F 0 CODE
93 541 0 CODE
95 543 0 CODE
97 545 0 CODE
98 54A 0 CODE
C:\_mihnea\_work\_SVN\HP CC_CV Charger Zeta\Firmware\zeta-battery-charger\BatteryCharger.c
73 72E 0 CODE
75 732 0 CODE
76 734 0 CODE
78 73B 0 CODE
81 744 0 CODE
80 745 0 CODE
81 747 0 CODE
85 749 0 CODE
86 74B 0 CODE
89 74C 0 CODE
91 750 0 CODE
92 752 0 CODE
94 755 0 CODE
96 75D 0 CODE
98 762 0 CODE
99 766 0 CODE
100 767 0 CODE
104 768 0 CODE
105 76A 0 CODE
111 774 0 CODE
113 778 0 CODE
116 783 0 CODE
117 785 0 CODE
119 789 0 CODE
126 78E 0 CODE
128 792 0 CODE
129 794 0 CODE
131 79D 0 CODE
134 79F 0 CODE
135 7AC 0 CODE
137 7AD 0 CODE
138 7AE 0 CODE
140 7B1 0 CODE
141 7B3 0 CODE
143 7B4 0 CODE
144 7B7 0 CODE
145 7B8 0 CODE
147 7BA 0 CODE
152 7BC 0 CODE
154 7C0 0 CODE
156 7C2 0 CODE
158 7D0 0 CODE
161 7D2 0 CODE
163 7D6 0 CODE
167 7DB 0 CODE
168 7E0 0 CODE
172 7E2 0 CODE
173 7E4 0 CODE
172 7E5 0 CODE
173 7E6 0 CODE
179 7EC 0 CODE
C:\Program Files\HI-TECH Software\PICC\9.83\sources\awdiv.c
9 5A1 0 CODE
10 5A2 0 CODE
11 5A4 0 CODE
12 5A9 0 CODE
14 5AB 0 CODE
15 5AD 0 CODE
16 5B2 0 CODE
18 5B4 0 CODE
19 5B6 0 CODE
20 5BA 0 CODE
23 5BB 0 CODE
21 5BC 0 CODE
22 5BE 0 CODE
21 5C0 0 CODE
26 5C1 0 CODE
27 5C3 0 CODE
28 5CB 0 CODE
29 5CF 0 CODE
31 5D0 0 CODE
32 5D2 0 CODE
34 5D4 0 CODE
35 5D7 0 CODE
36 5DC 0 CODE
37 5E0 0 CODE
C:\_mihnea\_work\_SVN\HP CC_CV Charger Zeta\Firmware\zeta-battery-charger\Hardware.c
260 4D0 0 CODE
261 4D6 0 CODE
262 4DC 0 CODE
264 4E1 0 CODE
265 4E3 0 CODE
267 4E5 0 CODE
242 500 0 CODE
244 508 0 CODE
246 50D 0 CODE
247 512 0 CODE
250 513 0 CODE
252 51B 0 CODE
254 520 0 CODE
253 521 0 CODE
254 523 0 CODE
256 524 0 CODE
155 4C4 0 CODE
157 4C8 0 CODE
159 4CA 0 CODE
158 4CB 0 CODE
159 4CC 0 CODE
155 4CF 0 CODE
161 4D0 0 CODE
103 574 0 CODE
105 577 0 CODE
108 579 0 CODE
109 57B 0 CODE
110 57E 0 CODE
112 581 0 CODE
113 584 0 CODE
114 587 0 CODE
116 589 0 CODE
117 58C 0 CODE
120 58F 0 CODE
123 591 0 CODE
124 594 0 CODE
126 596 0 CODE
129 599 0 CODE
130 59C 0 CODE
132 59E 0 CODE
133 59F 0 CODE
134 5A0 0 CODE
201 54B 0 CODE
202 55A 0 CODE
204 56B 0 CODE
205 56F 0 CODE
206 573 0 CODE
C:\_mihnea\_work\_SVN\HP CC_CV Charger Zeta\Firmware\zeta-battery-charger\BatteryCharger.c
57 4E6 0 CODE
58 4E8 0 CODE
59 4EC 0 CODE
61 4EE 0 CODE
62 4F0 0 CODE
61 4F1 0 CODE
62 4F2 0 CODE
64 4F5 0 CODE
68 4FA 0 CODE
69 4FF 0 CODE
